^D:\YU\REMOVE_OUTLIER_POINTS\REMOVE_OUTLIER_POINTS\PLYLIB.CPP
C:\PROGRAM FILES (X86)\WINDOWS KITS\10\INCLUDE\10.0.16299.0\UCRT\ASSERT.H
C:\PROGRAM FILES (X86)\WINDOWS KITS\10\INCLUDE\10.0.16299.0\UCRT\CORECRT.H
C:\PROGRAM FILES (X86)\MICROSOFT VISUAL STUDIO\2017\COMMUNITY\VC\TOOLS\MSVC\14.12.25827\INCLUDE\VCRUNTIME.H
C:\PROGRAM FILES (X86)\MICROSOFT VISUAL STUDIO\2017\COMMUNITY\VC\TOOLS\MSVC\14.12.25827\INCLUDE\SAL.H
C:\PROGRAM FILES (X86)\MICROSOFT VISUAL STUDIO\2017\COMMUNITY\VC\TOOLS\MSVC\14.12.25827\INCLUDE\CONCURRENCYSAL.H
C:\PROGRAM FILES (X86)\MICROSOFT VISUAL STUDIO\2017\COMMUNITY\VC\TOOLS\MSVC\14.12.25827\INCLUDE\VADEFS.H
C:\PROGRAM FILES (X86)\WINDOWS KITS\10\INCLUDE\10.0.16299.0\UCRT\FCNTL.H
C:\PROGRAM FILES (X86)\WINDOWS KITS\10\INCLUDE\10.0.16299.0\UCRT\SYS\TYPES.H
C:\PROGRAM FILES (X86)\WINDOWS KITS\10\INCLUDE\10.0.16299.0\UCRT\SYS\STAT.H
C:\PROGRAM FILES (X86)\WINDOWS KITS\10\INCLUDE\10.0.16299.0\UCRT\TIME.H
C:\PROGRAM FILES (X86)\WINDOWS KITS\10\INCLUDE\10.0.16299.0\UCRT\CORECRT_WTIME.H
C:\PROGRAM FILES (X86)\WINDOWS KITS\10\INCLUDE\10.0.16299.0\UCRT\STDIO.H
C:\PROGRAM FILES (X86)\WINDOWS KITS\10\INCLUDE\10.0.16299.0\UCRT\CORECRT_WSTDIO.H
C:\PROGRAM FILES (X86)\WINDOWS KITS\10\INCLUDE\10.0.16299.0\UCRT\CORECRT_STDIO_CONFIG.H
C:\PROGRAM FILES (X86)\WINDOWS KITS\10\INCLUDE\10.0.16299.0\UCRT\STDLIB.H
C:\PROGRAM FILES (X86)\WINDOWS KITS\10\INCLUDE\10.0.16299.0\UCRT\CORECRT_MALLOC.H
C:\PROGRAM FILES (X86)\WINDOWS KITS\10\INCLUDE\10.0.16299.0\UCRT\CORECRT_SEARCH.H
C:\PROGRAM FILES (X86)\WINDOWS KITS\10\INCLUDE\10.0.16299.0\UCRT\STDDEF.H
C:\PROGRAM FILES (X86)\WINDOWS KITS\10\INCLUDE\10.0.16299.0\UCRT\CORECRT_WSTDLIB.H
C:\PROGRAM FILES (X86)\MICROSOFT VISUAL STUDIO\2017\COMMUNITY\VC\TOOLS\MSVC\14.12.25827\INCLUDE\LIMITS.H
C:\PROGRAM FILES (X86)\WINDOWS KITS\10\INCLUDE\10.0.16299.0\UCRT\MATH.H
C:\PROGRAM FILES (X86)\WINDOWS KITS\10\INCLUDE\10.0.16299.0\UCRT\CORECRT_MATH.H
C:\PROGRAM FILES (X86)\WINDOWS KITS\10\INCLUDE\10.0.16299.0\UCRT\STRING.H
C:\PROGRAM FILES (X86)\WINDOWS KITS\10\INCLUDE\10.0.16299.0\UCRT\CORECRT_MEMORY.H
C:\PROGRAM FILES (X86)\WINDOWS KITS\10\INCLUDE\10.0.16299.0\UCRT\CORECRT_MEMCPY_S.H
C:\PROGRAM FILES (X86)\WINDOWS KITS\10\INCLUDE\10.0.16299.0\UCRT\ERRNO.H
C:\PROGRAM FILES (X86)\MICROSOFT VISUAL STUDIO\2017\COMMUNITY\VC\TOOLS\MSVC\14.12.25827\INCLUDE\VCRUNTIME_STRING.H
C:\PROGRAM FILES (X86)\WINDOWS KITS\10\INCLUDE\10.0.16299.0\UCRT\CORECRT_WSTRING.H
C:\PROGRAM FILES (X86)\MICROSOFT VISUAL STUDIO\2017\COMMUNITY\VC\TOOLS\MSVC\14.12.25827\INCLUDE\VECTOR
C:\PROGRAM FILES (X86)\MICROSOFT VISUAL STUDIO\2017\COMMUNITY\VC\TOOLS\MSVC\14.12.25827\INCLUDE\XMEMORY
C:\PROGRAM FILES (X86)\MICROSOFT VISUAL STUDIO\2017\COMMUNITY\VC\TOOLS\MSVC\14.12.25827\INCLUDE\XMEMORY0
C:\PROGRAM FILES (X86)\MICROSOFT VISUAL STUDIO\2017\COMMUNITY\VC\TOOLS\MSVC\14.12.25827\INCLUDE\CSTDINT
C:\PROGRAM FILES (X86)\MICROSOFT VISUAL STUDIO\2017\COMMUNITY\VC\TOOLS\MSVC\14.12.25827\INCLUDE\YVALS.H
C:\PROGRAM FILES (X86)\MICROSOFT VISUAL STUDIO\2017\COMMUNITY\VC\TOOLS\MSVC\14.12.25827\INCLUDE\XKEYCHECK.H
C:\PROGRAM FILES (X86)\MICROSOFT VISUAL STUDIO\2017\COMMUNITY\VC\TOOLS\MSVC\14.12.25827\INCLUDE\CRTDEFS.H
C:\PROGRAM FILES (X86)\MICROSOFT VISUAL STUDIO\2017\COMMUNITY\VC\TOOLS\MSVC\14.12.25827\INCLUDE\USE_ANSI.H
C:\PROGRAM FILES (X86)\MICROSOFT VISUAL STUDIO\2017\COMMUNITY\VC\TOOLS\MSVC\14.12.25827\INCLUDE\STDINT.H
C:\PROGRAM FILES (X86)\MICROSOFT VISUAL STUDIO\2017\COMMUNITY\VC\TOOLS\MSVC\14.12.25827\INCLUDE\CSTDLIB
C:\PROGRAM FILES (X86)\MICROSOFT VISUAL STUDIO\2017\COMMUNITY\VC\TOOLS\MSVC\14.12.25827\INCLUDE\LIMITS
C:\PROGRAM FILES (X86)\MICROSOFT VISUAL STUDIO\2017\COMMUNITY\VC\TOOLS\MSVC\14.12.25827\INCLUDE\YMATH.H
C:\PROGRAM FILES (X86)\MICROSOFT VISUAL STUDIO\2017\COMMUNITY\VC\TOOLS\MSVC\14.12.25827\INCLUDE\CFLOAT
C:\PROGRAM FILES (X86)\WINDOWS KITS\10\INCLUDE\10.0.16299.0\UCRT\FLOAT.H
C:\PROGRAM FILES (X86)\MICROSOFT VISUAL STUDIO\2017\COMMUNITY\VC\TOOLS\MSVC\14.12.25827\INCLUDE\CLIMITS
C:\PROGRAM FILES (X86)\MICROSOFT VISUAL STUDIO\2017\COMMUNITY\VC\TOOLS\MSVC\14.12.25827\INCLUDE\CMATH
C:\PROGRAM FILES (X86)\MICROSOFT VISUAL STUDIO\2017\COMMUNITY\VC\TOOLS\MSVC\14.12.25827\INCLUDE\XTGMATH.H
C:\PROGRAM FILES (X86)\MICROSOFT VISUAL STUDIO\2017\COMMUNITY\VC\TOOLS\MSVC\14.12.25827\INCLUDE\XTR1COMMON
C:\PROGRAM FILES (X86)\MICROSOFT VISUAL STUDIO\2017\COMMUNITY\VC\TOOLS\MSVC\14.12.25827\INCLUDE\CWCHAR
C:\PROGRAM FILES (X86)\WINDOWS KITS\10\INCLUDE\10.0.16299.0\UCRT\WCHAR.H
C:\PROGRAM FILES (X86)\WINDOWS KITS\10\INCLUDE\10.0.16299.0\UCRT\CORECRT_WCONIO.H
C:\PROGRAM FILES (X86)\WINDOWS KITS\10\INCLUDE\10.0.16299.0\UCRT\CORECRT_WCTYPE.H
C:\PROGRAM FILES (X86)\WINDOWS KITS\10\INCLUDE\10.0.16299.0\UCRT\CORECRT_WDIRECT.H
C:\PROGRAM FILES (X86)\WINDOWS KITS\10\INCLUDE\10.0.16299.0\UCRT\CORECRT_WIO.H
C:\PROGRAM FILES (X86)\WINDOWS KITS\10\INCLUDE\10.0.16299.0\UCRT\CORECRT_SHARE.H
C:\PROGRAM FILES (X86)\WINDOWS KITS\10\INCLUDE\10.0.16299.0\UCRT\CORECRT_WPROCESS.H
C:\PROGRAM FILES (X86)\MICROSOFT VISUAL STUDIO\2017\COMMUNITY\VC\TOOLS\MSVC\14.12.25827\INCLUDE\XSTDDEF
C:\PROGRAM FILES (X86)\MICROSOFT VISUAL STUDIO\2017\COMMUNITY\VC\TOOLS\MSVC\14.12.25827\INCLUDE\CSTDDEF
C:\PROGRAM FILES (X86)\MICROSOFT VISUAL STUDIO\2017\COMMUNITY\VC\TOOLS\MSVC\14.12.25827\INCLUDE\INITIALIZER_LIST
C:\PROGRAM FILES (X86)\MICROSOFT VISUAL STUDIO\2017\COMMUNITY\VC\TOOLS\MSVC\14.12.25827\INCLUDE\NEW
C:\PROGRAM FILES (X86)\MICROSOFT VISUAL STUDIO\2017\COMMUNITY\VC\TOOLS\MSVC\14.12.25827\INCLUDE\EXCEPTION
C:\PROGRAM FILES (X86)\MICROSOFT VISUAL STUDIO\2017\COMMUNITY\VC\TOOLS\MSVC\14.12.25827\INCLUDE\TYPE_TRAITS
C:\PROGRAM FILES (X86)\WINDOWS KITS\10\INCLUDE\10.0.16299.0\UCRT\MALLOC.H
C:\PROGRAM FILES (X86)\MICROSOFT VISUAL STUDIO\2017\COMMUNITY\VC\TOOLS\MSVC\14.12.25827\INCLUDE\VCRUNTIME_EXCEPTION.H
C:\PROGRAM FILES (X86)\MICROSOFT VISUAL STUDIO\2017\COMMUNITY\VC\TOOLS\MSVC\14.12.25827\INCLUDE\EH.H
C:\PROGRAM FILES (X86)\WINDOWS KITS\10\INCLUDE\10.0.16299.0\UCRT\CORECRT_TERMINATE.H
C:\PROGRAM FILES (X86)\MICROSOFT VISUAL STUDIO\2017\COMMUNITY\VC\TOOLS\MSVC\14.12.25827\INCLUDE\VCRUNTIME_NEW.H
C:\PROGRAM FILES (X86)\MICROSOFT VISUAL STUDIO\2017\COMMUNITY\VC\TOOLS\MSVC\14.12.25827\INCLUDE\XUTILITY
C:\PROGRAM FILES (X86)\MICROSOFT VISUAL STUDIO\2017\COMMUNITY\VC\TOOLS\MSVC\14.12.25827\INCLUDE\UTILITY
C:\PROGRAM FILES (X86)\MICROSOFT VISUAL STUDIO\2017\COMMUNITY\VC\TOOLS\MSVC\14.12.25827\INCLUDE\IOSFWD
C:\PROGRAM FILES (X86)\MICROSOFT VISUAL STUDIO\2017\COMMUNITY\VC\TOOLS\MSVC\14.12.25827\INCLUDE\CSTDIO
C:\PROGRAM FILES (X86)\MICROSOFT VISUAL STUDIO\2017\COMMUNITY\VC\TOOLS\MSVC\14.12.25827\INCLUDE\CSTRING
C:\PROGRAM FILES (X86)\WINDOWS KITS\10\INCLUDE\10.0.16299.0\UCRT\CRTDBG.H
C:\PROGRAM FILES (X86)\MICROSOFT VISUAL STUDIO\2017\COMMUNITY\VC\TOOLS\MSVC\14.12.25827\INCLUDE\VCRUNTIME_NEW_DEBUG.H
C:\PROGRAM FILES (X86)\MICROSOFT VISUAL STUDIO\2017\COMMUNITY\VC\TOOLS\MSVC\14.12.25827\INCLUDE\XATOMIC0.H
C:\PROGRAM FILES (X86)\MICROSOFT VISUAL STUDIO\2017\COMMUNITY\VC\TOOLS\MSVC\14.12.25827\INCLUDE\INTRIN0.H
C:\PROGRAM FILES (X86)\MICROSOFT VISUAL STUDIO\2017\COMMUNITY\VC\TOOLS\MSVC\14.12.25827\INCLUDE\STDEXCEPT
C:\PROGRAM FILES (X86)\MICROSOFT VISUAL STUDIO\2017\COMMUNITY\VC\TOOLS\MSVC\14.12.25827\INCLUDE\XSTRING
C:\PROGRAM FILES (X86)\MICROSOFT VISUAL STUDIO\2017\COMMUNITY\VC\TOOLS\MSVC\14.12.25827\INCLUDE\ALGORITHM
D:\YU\REMOVE_OUTLIER_POINTS\REMOVE_OUTLIER_POINTS\PLYLIB.H
C:\PROGRAM FILES (X86)\WINDOWS KITS\10\INCLUDE\10.0.16299.0\UCRT\MEMORY.H
C:\PROGRAM FILES (X86)\MICROSOFT VISUAL STUDIO\2017\COMMUNITY\VC\TOOLS\MSVC\14.12.25827\INCLUDE\STRING
C:\PROGRAM FILES (X86)\MICROSOFT VISUAL STUDIO\2017\COMMUNITY\VC\TOOLS\MSVC\14.12.25827\INCLUDE\ISTREAM
C:\PROGRAM FILES (X86)\MICROSOFT VISUAL STUDIO\2017\COMMUNITY\VC\TOOLS\MSVC\14.12.25827\INCLUDE\OSTREAM
C:\PROGRAM FILES (X86)\MICROSOFT VISUAL STUDIO\2017\COMMUNITY\VC\TOOLS\MSVC\14.12.25827\INCLUDE\IOS
C:\PROGRAM FILES (X86)\MICROSOFT VISUAL STUDIO\2017\COMMUNITY\VC\TOOLS\MSVC\14.12.25827\INCLUDE\XLOCNUM
C:\PROGRAM FILES (X86)\MICROSOFT VISUAL STUDIO\2017\COMMUNITY\VC\TOOLS\MSVC\14.12.25827\INCLUDE\STREAMBUF
C:\PROGRAM FILES (X86)\MICROSOFT VISUAL STUDIO\2017\COMMUNITY\VC\TOOLS\MSVC\14.12.25827\INCLUDE\XIOSBASE
C:\PROGRAM FILES (X86)\MICROSOFT VISUAL STUDIO\2017\COMMUNITY\VC\TOOLS\MSVC\14.12.25827\INCLUDE\XLOCALE
C:\PROGRAM FILES (X86)\MICROSOFT VISUAL STUDIO\2017\COMMUNITY\VC\TOOLS\MSVC\14.12.25827\INCLUDE\TYPEINFO
C:\PROGRAM FILES (X86)\MICROSOFT VISUAL STUDIO\2017\COMMUNITY\VC\TOOLS\MSVC\14.12.25827\INCLUDE\VCRUNTIME_TYPEINFO.H
C:\PROGRAM FILES (X86)\MICROSOFT VISUAL STUDIO\2017\COMMUNITY\VC\TOOLS\MSVC\14.12.25827\INCLUDE\XLOCINFO
C:\PROGRAM FILES (X86)\MICROSOFT VISUAL STUDIO\2017\COMMUNITY\VC\TOOLS\MSVC\14.12.25827\INCLUDE\XLOCINFO.H
C:\PROGRAM FILES (X86)\WINDOWS KITS\10\INCLUDE\10.0.16299.0\UCRT\CTYPE.H
C:\PROGRAM FILES (X86)\WINDOWS KITS\10\INCLUDE\10.0.16299.0\UCRT\LOCALE.H
C:\PROGRAM FILES (X86)\MICROSOFT VISUAL STUDIO\2017\COMMUNITY\VC\TOOLS\MSVC\14.12.25827\INCLUDE\XFACET
C:\PROGRAM FILES (X86)\MICROSOFT VISUAL STUDIO\2017\COMMUNITY\VC\TOOLS\MSVC\14.12.25827\INCLUDE\SYSTEM_ERROR
C:\PROGRAM FILES (X86)\MICROSOFT VISUAL STUDIO\2017\COMMUNITY\VC\TOOLS\MSVC\14.12.25827\INCLUDE\CERRNO
C:\PROGRAM FILES (X86)\MICROSOFT VISUAL STUDIO\2017\COMMUNITY\VC\TOOLS\MSVC\14.12.25827\INCLUDE\XCALL_ONCE.H
C:\PROGRAM FILES (X86)\WINDOWS KITS\10\INCLUDE\10.0.16299.0\UCRT\SHARE.H
C:\PROGRAM FILES (X86)\MICROSOFT VISUAL STUDIO\2017\COMMUNITY\VC\TOOLS\MSVC\14.12.25827\INCLUDE\XSTRING_INSERT.H
^D:\YU\REMOVE_OUTLIER_POINTS\REMOVE_OUTLIER_POINTS\REMOVEOUTLIERS.CPP
D:\YU\REMOVE_OUTLIER_POINTS\REMOVE_OUTLIER_POINTS\REMOVEOUTLIERS.H
D:\YU\REMOVE_OUTLIER_POINTS\REMOVE_OUTLIER_POINTS\VCGLIB\WRAP\IO_TRIMESH\IMPORT_PLY.H
C:\PROGRAM FILES (X86)\WINDOWS KITS\10\INCLUDE\10.0.16299.0\UCRT\STDDEF.H
C:\PROGRAM FILES (X86)\WINDOWS KITS\10\INCLUDE\10.0.16299.0\UCRT\CORECRT.H
C:\PROGRAM FILES (X86)\MICROSOFT VISUAL STUDIO\2017\COMMUNITY\VC\TOOLS\MSVC\14.12.25827\INCLUDE\VCRUNTIME.H
C:\PROGRAM FILES (X86)\MICROSOFT VISUAL STUDIO\2017\COMMUNITY\VC\TOOLS\MSVC\14.12.25827\INCLUDE\SAL.H
C:\PROGRAM FILES (X86)\MICROSOFT VISUAL STUDIO\2017\COMMUNITY\VC\TOOLS\MSVC\14.12.25827\INCLUDE\CONCURRENCYSAL.H
C:\PROGRAM FILES (X86)\MICROSOFT VISUAL STUDIO\2017\COMMUNITY\VC\TOOLS\MSVC\14.12.25827\INCLUDE\VADEFS.H
D:\YU\REMOVE_OUTLIER_POINTS\REMOVE_OUTLIER_POINTS\VCGLIB\WRAP\CALLBACK.H
D:\YU\REMOVE_OUTLIER_POINTS\REMOVE_OUTLIER_POINTS\VCGLIB\WRAP\PLY\PLYLIB.H
C:\PROGRAM FILES (X86)\WINDOWS KITS\10\INCLUDE\10.0.16299.0\UCRT\MEMORY.H
C:\PROGRAM FILES (X86)\WINDOWS KITS\10\INCLUDE\10.0.16299.0\UCRT\CORECRT_MEMORY.H
C:\PROGRAM FILES (X86)\WINDOWS KITS\10\INCLUDE\10.0.16299.0\UCRT\CORECRT_MEMCPY_S.H
C:\PROGRAM FILES (X86)\WINDOWS KITS\10\INCLUDE\10.0.16299.0\UCRT\ERRNO.H
C:\PROGRAM FILES (X86)\MICROSOFT VISUAL STUDIO\2017\COMMUNITY\VC\TOOLS\MSVC\14.12.25827\INCLUDE\VCRUNTIME_STRING.H
C:\PROGRAM FILES (X86)\MICROSOFT VISUAL STUDIO\2017\COMMUNITY\VC\TOOLS\MSVC\14.12.25827\INCLUDE\VECTOR
C:\PROGRAM FILES (X86)\MICROSOFT VISUAL STUDIO\2017\COMMUNITY\VC\TOOLS\MSVC\14.12.25827\INCLUDE\XMEMORY
C:\PROGRAM FILES (X86)\MICROSOFT VISUAL STUDIO\2017\COMMUNITY\VC\TOOLS\MSVC\14.12.25827\INCLUDE\XMEMORY0
C:\PROGRAM FILES (X86)\MICROSOFT VISUAL STUDIO\2017\COMMUNITY\VC\TOOLS\MSVC\14.12.25827\INCLUDE\CSTDINT
C:\PROGRAM FILES (X86)\MICROSOFT VISUAL STUDIO\2017\COMMUNITY\VC\TOOLS\MSVC\14.12.25827\INCLUDE\YVALS.H
C:\PROGRAM FILES (X86)\MICROSOFT VISUAL STUDIO\2017\COMMUNITY\VC\TOOLS\MSVC\14.12.25827\INCLUDE\XKEYCHECK.H
C:\PROGRAM FILES (X86)\MICROSOFT VISUAL STUDIO\2017\COMMUNITY\VC\TOOLS\MSVC\14.12.25827\INCLUDE\CRTDEFS.H
C:\PROGRAM FILES (X86)\MICROSOFT VISUAL STUDIO\2017\COMMUNITY\VC\TOOLS\MSVC\14.12.25827\INCLUDE\USE_ANSI.H
C:\PROGRAM FILES (X86)\MICROSOFT VISUAL STUDIO\2017\COMMUNITY\VC\TOOLS\MSVC\14.12.25827\INCLUDE\STDINT.H
C:\PROGRAM FILES (X86)\MICROSOFT VISUAL STUDIO\2017\COMMUNITY\VC\TOOLS\MSVC\14.12.25827\INCLUDE\CSTDLIB
C:\PROGRAM FILES (X86)\WINDOWS KITS\10\INCLUDE\10.0.16299.0\UCRT\STDLIB.H
C:\PROGRAM FILES (X86)\WINDOWS KITS\10\INCLUDE\10.0.16299.0\UCRT\CORECRT_MALLOC.H
C:\PROGRAM FILES (X86)\WINDOWS KITS\10\INCLUDE\10.0.16299.0\UCRT\CORECRT_SEARCH.H
C:\PROGRAM FILES (X86)\WINDOWS KITS\10\INCLUDE\10.0.16299.0\UCRT\CORECRT_WSTDLIB.H
C:\PROGRAM FILES (X86)\MICROSOFT VISUAL STUDIO\2017\COMMUNITY\VC\TOOLS\MSVC\14.12.25827\INCLUDE\LIMITS.H
C:\PROGRAM FILES (X86)\WINDOWS KITS\10\INCLUDE\10.0.16299.0\UCRT\MATH.H
C:\PROGRAM FILES (X86)\WINDOWS KITS\10\INCLUDE\10.0.16299.0\UCRT\CORECRT_MATH.H
C:\PROGRAM FILES (X86)\MICROSOFT VISUAL STUDIO\2017\COMMUNITY\VC\TOOLS\MSVC\14.12.25827\INCLUDE\LIMITS
C:\PROGRAM FILES (X86)\MICROSOFT VISUAL STUDIO\2017\COMMUNITY\VC\TOOLS\MSVC\14.12.25827\INCLUDE\YMATH.H
C:\PROGRAM FILES (X86)\MICROSOFT VISUAL STUDIO\2017\COMMUNITY\VC\TOOLS\MSVC\14.12.25827\INCLUDE\CFLOAT
C:\PROGRAM FILES (X86)\WINDOWS KITS\10\INCLUDE\10.0.16299.0\UCRT\FLOAT.H
C:\PROGRAM FILES (X86)\MICROSOFT VISUAL STUDIO\2017\COMMUNITY\VC\TOOLS\MSVC\14.12.25827\INCLUDE\CLIMITS
C:\PROGRAM FILES (X86)\MICROSOFT VISUAL STUDIO\2017\COMMUNITY\VC\TOOLS\MSVC\14.12.25827\INCLUDE\CMATH
C:\PROGRAM FILES (X86)\MICROSOFT VISUAL STUDIO\2017\COMMUNITY\VC\TOOLS\MSVC\14.12.25827\INCLUDE\XTGMATH.H
C:\PROGRAM FILES (X86)\MICROSOFT VISUAL STUDIO\2017\COMMUNITY\VC\TOOLS\MSVC\14.12.25827\INCLUDE\XTR1COMMON
C:\PROGRAM FILES (X86)\MICROSOFT VISUAL STUDIO\2017\COMMUNITY\VC\TOOLS\MSVC\14.12.25827\INCLUDE\CWCHAR
C:\PROGRAM FILES (X86)\WINDOWS KITS\10\INCLUDE\10.0.16299.0\UCRT\WCHAR.H
C:\PROGRAM FILES (X86)\WINDOWS KITS\10\INCLUDE\10.0.16299.0\UCRT\CORECRT_WCONIO.H
C:\PROGRAM FILES (X86)\WINDOWS KITS\10\INCLUDE\10.0.16299.0\UCRT\CORECRT_STDIO_CONFIG.H
C:\PROGRAM FILES (X86)\WINDOWS KITS\10\INCLUDE\10.0.16299.0\UCRT\CORECRT_WCTYPE.H
C:\PROGRAM FILES (X86)\WINDOWS KITS\10\INCLUDE\10.0.16299.0\UCRT\CORECRT_WDIRECT.H
C:\PROGRAM FILES (X86)\WINDOWS KITS\10\INCLUDE\10.0.16299.0\UCRT\CORECRT_WIO.H
C:\PROGRAM FILES (X86)\WINDOWS KITS\10\INCLUDE\10.0.16299.0\UCRT\CORECRT_SHARE.H
C:\PROGRAM FILES (X86)\WINDOWS KITS\10\INCLUDE\10.0.16299.0\UCRT\CORECRT_WPROCESS.H
C:\PROGRAM FILES (X86)\WINDOWS KITS\10\INCLUDE\10.0.16299.0\UCRT\CORECRT_WSTDIO.H
C:\PROGRAM FILES (X86)\WINDOWS KITS\10\INCLUDE\10.0.16299.0\UCRT\CORECRT_WSTRING.H
C:\PROGRAM FILES (X86)\WINDOWS KITS\10\INCLUDE\10.0.16299.0\UCRT\CORECRT_WTIME.H
C:\PROGRAM FILES (X86)\WINDOWS KITS\10\INCLUDE\10.0.16299.0\UCRT\SYS\STAT.H
C:\PROGRAM FILES (X86)\WINDOWS KITS\10\INCLUDE\10.0.16299.0\UCRT\SYS\TYPES.H
C:\PROGRAM FILES (X86)\MICROSOFT VISUAL STUDIO\2017\COMMUNITY\VC\TOOLS\MSVC\14.12.25827\INCLUDE\XSTDDEF
C:\PROGRAM FILES (X86)\MICROSOFT VISUAL STUDIO\2017\COMMUNITY\VC\TOOLS\MSVC\14.12.25827\INCLUDE\CSTDDEF
C:\PROGRAM FILES (X86)\MICROSOFT VISUAL STUDIO\2017\COMMUNITY\VC\TOOLS\MSVC\14.12.25827\INCLUDE\INITIALIZER_LIST
C:\PROGRAM FILES (X86)\MICROSOFT VISUAL STUDIO\2017\COMMUNITY\VC\TOOLS\MSVC\14.12.25827\INCLUDE\NEW
C:\PROGRAM FILES (X86)\MICROSOFT VISUAL STUDIO\2017\COMMUNITY\VC\TOOLS\MSVC\14.12.25827\INCLUDE\EXCEPTION
C:\PROGRAM FILES (X86)\MICROSOFT VISUAL STUDIO\2017\COMMUNITY\VC\TOOLS\MSVC\14.12.25827\INCLUDE\TYPE_TRAITS
C:\PROGRAM FILES (X86)\WINDOWS KITS\10\INCLUDE\10.0.16299.0\UCRT\MALLOC.H
C:\PROGRAM FILES (X86)\MICROSOFT VISUAL STUDIO\2017\COMMUNITY\VC\TOOLS\MSVC\14.12.25827\INCLUDE\VCRUNTIME_EXCEPTION.H
C:\PROGRAM FILES (X86)\MICROSOFT VISUAL STUDIO\2017\COMMUNITY\VC\TOOLS\MSVC\14.12.25827\INCLUDE\EH.H
C:\PROGRAM FILES (X86)\WINDOWS KITS\10\INCLUDE\10.0.16299.0\UCRT\CORECRT_TERMINATE.H
C:\PROGRAM FILES (X86)\MICROSOFT VISUAL STUDIO\2017\COMMUNITY\VC\TOOLS\MSVC\14.12.25827\INCLUDE\VCRUNTIME_NEW.H
C:\PROGRAM FILES (X86)\MICROSOFT VISUAL STUDIO\2017\COMMUNITY\VC\TOOLS\MSVC\14.12.25827\INCLUDE\XUTILITY
C:\PROGRAM FILES (X86)\MICROSOFT VISUAL STUDIO\2017\COMMUNITY\VC\TOOLS\MSVC\14.12.25827\INCLUDE\UTILITY
C:\PROGRAM FILES (X86)\MICROSOFT VISUAL STUDIO\2017\COMMUNITY\VC\TOOLS\MSVC\14.12.25827\INCLUDE\IOSFWD
C:\PROGRAM FILES (X86)\MICROSOFT VISUAL STUDIO\2017\COMMUNITY\VC\TOOLS\MSVC\14.12.25827\INCLUDE\CSTDIO
C:\PROGRAM FILES (X86)\WINDOWS KITS\10\INCLUDE\10.0.16299.0\UCRT\STDIO.H
C:\PROGRAM FILES (X86)\MICROSOFT VISUAL STUDIO\2017\COMMUNITY\VC\TOOLS\MSVC\14.12.25827\INCLUDE\CSTRING
C:\PROGRAM FILES (X86)\WINDOWS KITS\10\INCLUDE\10.0.16299.0\UCRT\STRING.H
C:\PROGRAM FILES (X86)\WINDOWS KITS\10\INCLUDE\10.0.16299.0\UCRT\CRTDBG.H
C:\PROGRAM FILES (X86)\MICROSOFT VISUAL STUDIO\2017\COMMUNITY\VC\TOOLS\MSVC\14.12.25827\INCLUDE\VCRUNTIME_NEW_DEBUG.H
C:\PROGRAM FILES (X86)\MICROSOFT VISUAL STUDIO\2017\COMMUNITY\VC\TOOLS\MSVC\14.12.25827\INCLUDE\XATOMIC0.H
C:\PROGRAM FILES (X86)\MICROSOFT VISUAL STUDIO\2017\COMMUNITY\VC\TOOLS\MSVC\14.12.25827\INCLUDE\INTRIN0.H
C:\PROGRAM FILES (X86)\MICROSOFT VISUAL STUDIO\2017\COMMUNITY\VC\TOOLS\MSVC\14.12.25827\INCLUDE\STDEXCEPT
C:\PROGRAM FILES (X86)\MICROSOFT VISUAL STUDIO\2017\COMMUNITY\VC\TOOLS\MSVC\14.12.25827\INCLUDE\XSTRING
C:\PROGRAM FILES (X86)\MICROSOFT VISUAL STUDIO\2017\COMMUNITY\VC\TOOLS\MSVC\14.12.25827\INCLUDE\STRING
C:\PROGRAM FILES (X86)\MICROSOFT VISUAL STUDIO\2017\COMMUNITY\VC\TOOLS\MSVC\14.12.25827\INCLUDE\ISTREAM
C:\PROGRAM FILES (X86)\MICROSOFT VISUAL STUDIO\2017\COMMUNITY\VC\TOOLS\MSVC\14.12.25827\INCLUDE\OSTREAM
C:\PROGRAM FILES (X86)\MICROSOFT VISUAL STUDIO\2017\COMMUNITY\VC\TOOLS\MSVC\14.12.25827\INCLUDE\IOS
C:\PROGRAM FILES (X86)\MICROSOFT VISUAL STUDIO\2017\COMMUNITY\VC\TOOLS\MSVC\14.12.25827\INCLUDE\XLOCNUM
C:\PROGRAM FILES (X86)\MICROSOFT VISUAL STUDIO\2017\COMMUNITY\VC\TOOLS\MSVC\14.12.25827\INCLUDE\STREAMBUF
C:\PROGRAM FILES (X86)\MICROSOFT VISUAL STUDIO\2017\COMMUNITY\VC\TOOLS\MSVC\14.12.25827\INCLUDE\XIOSBASE
C:\PROGRAM FILES (X86)\MICROSOFT VISUAL STUDIO\2017\COMMUNITY\VC\TOOLS\MSVC\14.12.25827\INCLUDE\XLOCALE
C:\PROGRAM FILES (X86)\MICROSOFT VISUAL STUDIO\2017\COMMUNITY\VC\TOOLS\MSVC\14.12.25827\INCLUDE\TYPEINFO
C:\PROGRAM FILES (X86)\MICROSOFT VISUAL STUDIO\2017\COMMUNITY\VC\TOOLS\MSVC\14.12.25827\INCLUDE\VCRUNTIME_TYPEINFO.H
C:\PROGRAM FILES (X86)\MICROSOFT VISUAL STUDIO\2017\COMMUNITY\VC\TOOLS\MSVC\14.12.25827\INCLUDE\XLOCINFO
C:\PROGRAM FILES (X86)\MICROSOFT VISUAL STUDIO\2017\COMMUNITY\VC\TOOLS\MSVC\14.12.25827\INCLUDE\XLOCINFO.H
C:\PROGRAM FILES (X86)\WINDOWS KITS\10\INCLUDE\10.0.16299.0\UCRT\CTYPE.H
C:\PROGRAM FILES (X86)\WINDOWS KITS\10\INCLUDE\10.0.16299.0\UCRT\LOCALE.H
C:\PROGRAM FILES (X86)\MICROSOFT VISUAL STUDIO\2017\COMMUNITY\VC\TOOLS\MSVC\14.12.25827\INCLUDE\XFACET
C:\PROGRAM FILES (X86)\MICROSOFT VISUAL STUDIO\2017\COMMUNITY\VC\TOOLS\MSVC\14.12.25827\INCLUDE\SYSTEM_ERROR
C:\PROGRAM FILES (X86)\MICROSOFT VISUAL STUDIO\2017\COMMUNITY\VC\TOOLS\MSVC\14.12.25827\INCLUDE\CERRNO
C:\PROGRAM FILES (X86)\MICROSOFT VISUAL STUDIO\2017\COMMUNITY\VC\TOOLS\MSVC\14.12.25827\INCLUDE\XCALL_ONCE.H
C:\PROGRAM FILES (X86)\WINDOWS KITS\10\INCLUDE\10.0.16299.0\UCRT\SHARE.H
C:\PROGRAM FILES (X86)\MICROSOFT VISUAL STUDIO\2017\COMMUNITY\VC\TOOLS\MSVC\14.12.25827\INCLUDE\XSTRING_INSERT.H
C:\PROGRAM FILES (X86)\WINDOWS KITS\10\INCLUDE\10.0.16299.0\UCRT\ASSERT.H
D:\YU\REMOVE_OUTLIER_POINTS\REMOVE_OUTLIER_POINTS\VCGLIB\WRAP\IO_TRIMESH\IO_MASK.H
D:\YU\REMOVE_OUTLIER_POINTS\REMOVE_OUTLIER_POINTS\VCGLIB\WRAP\IO_TRIMESH\IO_PLY.H
D:\YU\REMOVE_OUTLIER_POINTS\REMOVE_OUTLIER_POINTS\VCGLIB\VCG\COMPLEX\ALGORITHMS\CREATE\PLATONIC.H
D:\YU\REMOVE_OUTLIER_POINTS\REMOVE_OUTLIER_POINTS\VCGLIB\VCG\MATH\BASE.H
C:\PROGRAM FILES (X86)\MICROSOFT VISUAL STUDIO\2017\COMMUNITY\VC\TOOLS\MSVC\14.12.25827\INCLUDE\ALGORITHM
D:\YU\REMOVE_OUTLIER_POINTS\REMOVE_OUTLIER_POINTS\VCGLIB\VCG\COMPLEX\ALGORITHMS\REFINE.H
C:\PROGRAM FILES (X86)\MICROSOFT VISUAL STUDIO\2017\COMMUNITY\VC\TOOLS\MSVC\14.12.25827\INCLUDE\FUNCTIONAL
C:\PROGRAM FILES (X86)\MICROSOFT VISUAL STUDIO\2017\COMMUNITY\VC\TOOLS\MSVC\14.12.25827\INCLUDE\TUPLE
C:\PROGRAM FILES (X86)\MICROSOFT VISUAL STUDIO\2017\COMMUNITY\VC\TOOLS\MSVC\14.12.25827\INCLUDE\XFUNCTIONAL
C:\PROGRAM FILES (X86)\MICROSOFT VISUAL STUDIO\2017\COMMUNITY\VC\TOOLS\MSVC\14.12.25827\INCLUDE\MAP
C:\PROGRAM FILES (X86)\MICROSOFT VISUAL STUDIO\2017\COMMUNITY\VC\TOOLS\MSVC\14.12.25827\INCLUDE\XTREE
D:\YU\REMOVE_OUTLIER_POINTS\REMOVE_OUTLIER_POINTS\VCGLIB\VCG\SPACE\SPHERE3.H
D:\YU\REMOVE_OUTLIER_POINTS\REMOVE_OUTLIER_POINTS\VCGLIB\VCG\SPACE\POINT3.H
D:\YU\REMOVE_OUTLIER_POINTS\REMOVE_OUTLIER_POINTS\VCGLIB\VCG\SPACE\DEPRECATED_POINT3.H
D:\YU\REMOVE_OUTLIER_POINTS\REMOVE_OUTLIER_POINTS\VCGLIB\VCG\SPACE\PLANE3.H
D:\YU\REMOVE_OUTLIER_POINTS\REMOVE_OUTLIER_POINTS\VCGLIB\VCG\SIMPLEX\FACE\POS.H
D:\YU\REMOVE_OUTLIER_POINTS\REMOVE_OUTLIER_POINTS\VCGLIB\VCG\SIMPLEX\FACE\TOPOLOGY.H
C:\PROGRAM FILES (X86)\MICROSOFT VISUAL STUDIO\2017\COMMUNITY\VC\TOOLS\MSVC\14.12.25827\INCLUDE\SET
D:\YU\REMOVE_OUTLIER_POINTS\REMOVE_OUTLIER_POINTS\VCGLIB\VCG\COMPLEX\ALGORITHMS\UPDATE\TOPOLOGY.H
D:\YU\REMOVE_OUTLIER_POINTS\REMOVE_OUTLIER_POINTS\VCGLIB\VCG\COMPLEX\ALGORITHMS\UPDATE\FLAG.H
D:\YU\REMOVE_OUTLIER_POINTS\REMOVE_OUTLIER_POINTS\VCGLIB\VCG\COMPLEX\ALGORITHMS\CLEAN.H
D:\YU\REMOVE_OUTLIER_POINTS\REMOVE_OUTLIER_POINTS\VCGLIB\VCG\COMPLEX\COMPLEX.H
C:\PROGRAM FILES (X86)\MICROSOFT VISUAL STUDIO\2017\COMMUNITY\VC\TOOLS\MSVC\14.12.25827\INCLUDE\STACK
C:\PROGRAM FILES (X86)\MICROSOFT VISUAL STUDIO\2017\COMMUNITY\VC\TOOLS\MSVC\14.12.25827\INCLUDE\DEQUE
C:\PROGRAM FILES (X86)\MICROSOFT VISUAL STUDIO\2017\COMMUNITY\VC\TOOLS\MSVC\14.12.25827\INCLUDE\IOSTREAM
D:\YU\REMOVE_OUTLIER_POINTS\REMOVE_OUTLIER_POINTS\VCGLIB\VCG\COMPLEX\EXCEPTION.H
D:\YU\REMOVE_OUTLIER_POINTS\REMOVE_OUTLIER_POINTS\VCGLIB\VCG\CONTAINER\SIMPLE_TEMPORARY_DATA.H
D:\YU\REMOVE_OUTLIER_POINTS\REMOVE_OUTLIER_POINTS\VCGLIB\VCG\COMPLEX\USED_TYPES.H
D:\YU\REMOVE_OUTLIER_POINTS\REMOVE_OUTLIER_POINTS\VCGLIB\VCG\SPACE\BOX3.H
D:\YU\REMOVE_OUTLIER_POINTS\REMOVE_OUTLIER_POINTS\VCGLIB\VCG\MATH\MATRIX44.H
D:\YU\REMOVE_OUTLIER_POINTS\REMOVE_OUTLIER_POINTS\VCGLIB\VCG\SPACE\POINT4.H
D:\YU\REMOVE_OUTLIER_POINTS\REMOVE_OUTLIER_POINTS\VCGLIB\VCG\SPACE\DEPRECATED_POINT4.H
D:\YU\REMOVE_OUTLIER_POINTS\REMOVE_OUTLIER_POINTS\VCGLIB\EIGENLIB\EIGEN\CORE
D:\YU\REMOVE_OUTLIER_POINTS\REMOVE_OUTLIER_POINTS\VCGLIB\EIGENLIB\EIGEN\SRC\CORE\UTIL\DISABLESTUPIDWARNINGS.H
D:\YU\REMOVE_OUTLIER_POINTS\REMOVE_OUTLIER_POINTS\VCGLIB\EIGENLIB\EIGEN\SRC\CORE\UTIL\MACROS.H
C:\PROGRAM FILES (X86)\MICROSOFT VISUAL STUDIO\2017\COMMUNITY\VC\TOOLS\MSVC\14.12.25827\INCLUDE\COMPLEX
C:\PROGRAM FILES (X86)\MICROSOFT VISUAL STUDIO\2017\COMMUNITY\VC\TOOLS\MSVC\14.12.25827\INCLUDE\SSTREAM
C:\PROGRAM FILES (X86)\MICROSOFT VISUAL STUDIO\2017\COMMUNITY\VC\TOOLS\MSVC\14.12.25827\INCLUDE\XCOMPLEX
D:\YU\REMOVE_OUTLIER_POINTS\REMOVE_OUTLIER_POINTS\VCGLIB\EIGENLIB\EIGEN\SRC\CORE\UTIL\MKL_SUPPORT.H
C:\PROGRAM FILES (X86)\MICROSOFT VISUAL STUDIO\2017\COMMUNITY\VC\TOOLS\MSVC\14.12.25827\INCLUDE\EMMINTRIN.H
C:\PROGRAM FILES (X86)\MICROSOFT VISUAL STUDIO\2017\COMMUNITY\VC\TOOLS\MSVC\14.12.25827\INCLUDE\XMMINTRIN.H
C:\PROGRAM FILES (X86)\MICROSOFT VISUAL STUDIO\2017\COMMUNITY\VC\TOOLS\MSVC\14.12.25827\INCLUDE\MMINTRIN.H
C:\PROGRAM FILES (X86)\MICROSOFT VISUAL STUDIO\2017\COMMUNITY\VC\TOOLS\MSVC\14.12.25827\INCLUDE\CASSERT
C:\PROGRAM FILES (X86)\MICROSOFT VISUAL STUDIO\2017\COMMUNITY\VC\TOOLS\MSVC\14.12.25827\INCLUDE\INTRIN.H
C:\PROGRAM FILES (X86)\MICROSOFT VISUAL STUDIO\2017\COMMUNITY\VC\TOOLS\MSVC\14.12.25827\INCLUDE\SETJMP.H
C:\PROGRAM FILES (X86)\MICROSOFT VISUAL STUDIO\2017\COMMUNITY\VC\TOOLS\MSVC\14.12.25827\INCLUDE\IMMINTRIN.H
C:\PROGRAM FILES (X86)\MICROSOFT VISUAL STUDIO\2017\COMMUNITY\VC\TOOLS\MSVC\14.12.25827\INCLUDE\WMMINTRIN.H
C:\PROGRAM FILES (X86)\MICROSOFT VISUAL STUDIO\2017\COMMUNITY\VC\TOOLS\MSVC\14.12.25827\INCLUDE\NMMINTRIN.H
C:\PROGRAM FILES (X86)\MICROSOFT VISUAL STUDIO\2017\COMMUNITY\VC\TOOLS\MSVC\14.12.25827\INCLUDE\SMMINTRIN.H
C:\PROGRAM FILES (X86)\MICROSOFT VISUAL STUDIO\2017\COMMUNITY\VC\TOOLS\MSVC\14.12.25827\INCLUDE\TMMINTRIN.H
C:\PROGRAM FILES (X86)\MICROSOFT VISUAL STUDIO\2017\COMMUNITY\VC\TOOLS\MSVC\14.12.25827\INCLUDE\PMMINTRIN.H
C:\PROGRAM FILES (X86)\MICROSOFT VISUAL STUDIO\2017\COMMUNITY\VC\TOOLS\MSVC\14.12.25827\INCLUDE\ZMMINTRIN.H
C:\PROGRAM FILES (X86)\MICROSOFT VISUAL STUDIO\2017\COMMUNITY\VC\TOOLS\MSVC\14.12.25827\INCLUDE\AMMINTRIN.H
D:\YU\REMOVE_OUTLIER_POINTS\REMOVE_OUTLIER_POINTS\VCGLIB\EIGENLIB\EIGEN\SRC\CORE\UTIL\CONSTANTS.H
D:\YU\REMOVE_OUTLIER_POINTS\REMOVE_OUTLIER_POINTS\VCGLIB\EIGENLIB\EIGEN\SRC\CORE\UTIL\FORWARDDECLARATIONS.H
D:\YU\REMOVE_OUTLIER_POINTS\REMOVE_OUTLIER_POINTS\VCGLIB\EIGENLIB\EIGEN\SRC\CORE\UTIL\META.H
D:\YU\REMOVE_OUTLIER_POINTS\REMOVE_OUTLIER_POINTS\VCGLIB\EIGENLIB\EIGEN\SRC\CORE\UTIL\STATICASSERT.H
D:\YU\REMOVE_OUTLIER_POINTS\REMOVE_OUTLIER_POINTS\VCGLIB\EIGENLIB\EIGEN\SRC\CORE\UTIL\XPRHELPER.H
D:\YU\REMOVE_OUTLIER_POINTS\REMOVE_OUTLIER_POINTS\VCGLIB\EIGENLIB\EIGEN\SRC\CORE\UTIL\MEMORY.H
D:\YU\REMOVE_OUTLIER_POINTS\REMOVE_OUTLIER_POINTS\VCGLIB\EIGENLIB\EIGEN\SRC\CORE\NUMTRAITS.H
D:\YU\REMOVE_OUTLIER_POINTS\REMOVE_OUTLIER_POINTS\VCGLIB\EIGENLIB\EIGEN\SRC\CORE\MATHFUNCTIONS.H
D:\YU\REMOVE_OUTLIER_POINTS\REMOVE_OUTLIER_POINTS\VCGLIB\EIGENLIB\EIGEN\SRC\CORE\GENERICPACKETMATH.H
D:\YU\REMOVE_OUTLIER_POINTS\REMOVE_OUTLIER_POINTS\VCGLIB\EIGENLIB\EIGEN\SRC\CORE\ARCH\SSE\PACKETMATH.H
D:\YU\REMOVE_OUTLIER_POINTS\REMOVE_OUTLIER_POINTS\VCGLIB\EIGENLIB\EIGEN\SRC\CORE\ARCH\SSE\MATHFUNCTIONS.H
D:\YU\REMOVE_OUTLIER_POINTS\REMOVE_OUTLIER_POINTS\VCGLIB\EIGENLIB\EIGEN\SRC\CORE\ARCH\SSE\COMPLEX.H
D:\YU\REMOVE_OUTLIER_POINTS\REMOVE_OUTLIER_POINTS\VCGLIB\EIGENLIB\EIGEN\SRC\CORE\ARCH\DEFAULT\SETTINGS.H
D:\YU\REMOVE_OUTLIER_POINTS\REMOVE_OUTLIER_POINTS\VCGLIB\EIGENLIB\EIGEN\SRC\CORE\FUNCTORS.H
D:\YU\REMOVE_OUTLIER_POINTS\REMOVE_OUTLIER_POINTS\VCGLIB\EIGENLIB\EIGEN\SRC\CORE\DENSECOEFFSBASE.H
D:\YU\REMOVE_OUTLIER_POINTS\REMOVE_OUTLIER_POINTS\VCGLIB\EIGENLIB\EIGEN\SRC\CORE\DENSEBASE.H
D:\YU\REMOVE_OUTLIER_POINTS\REMOVE_OUTLIER_POINTS\VCGLIB\EIGENLIB\EIGEN\SRC\PLUGINS\BLOCKMETHODS.H
D:\YU\REMOVE_OUTLIER_POINTS\REMOVE_OUTLIER_POINTS\VCGLIB\EIGENLIB\EIGEN\SRC\CORE\MATRIXBASE.H
D:\YU\REMOVE_OUTLIER_POINTS\REMOVE_OUTLIER_POINTS\VCGLIB\EIGENLIB\EIGEN\SRC\PLUGINS\COMMONCWISEUNARYOPS.H
D:\YU\REMOVE_OUTLIER_POINTS\REMOVE_OUTLIER_POINTS\VCGLIB\EIGENLIB\EIGEN\SRC\PLUGINS\COMMONCWISEBINARYOPS.H
D:\YU\REMOVE_OUTLIER_POINTS\REMOVE_OUTLIER_POINTS\VCGLIB\EIGENLIB\EIGEN\SRC\PLUGINS\MATRIXCWISEUNARYOPS.H
D:\YU\REMOVE_OUTLIER_POINTS\REMOVE_OUTLIER_POINTS\VCGLIB\EIGENLIB\EIGEN\SRC\PLUGINS\MATRIXCWISEBINARYOPS.H
D:\YU\REMOVE_OUTLIER_POINTS\REMOVE_OUTLIER_POINTS\VCGLIB\EIGENLIB\EIGEN\SRC\CORE\EIGENBASE.H
D:\YU\REMOVE_OUTLIER_POINTS\REMOVE_OUTLIER_POINTS\VCGLIB\EIGENLIB\EIGEN\SRC\CORE\ASSIGN.H
D:\YU\REMOVE_OUTLIER_POINTS\REMOVE_OUTLIER_POINTS\VCGLIB\EIGENLIB\EIGEN\SRC\CORE\UTIL\BLASUTIL.H
D:\YU\REMOVE_OUTLIER_POINTS\REMOVE_OUTLIER_POINTS\VCGLIB\EIGENLIB\EIGEN\SRC\CORE\DENSESTORAGE.H
D:\YU\REMOVE_OUTLIER_POINTS\REMOVE_OUTLIER_POINTS\VCGLIB\EIGENLIB\EIGEN\SRC\CORE\NESTBYVALUE.H
D:\YU\REMOVE_OUTLIER_POINTS\REMOVE_OUTLIER_POINTS\VCGLIB\EIGENLIB\EIGEN\SRC\CORE\FORCEALIGNEDACCESS.H
D:\YU\REMOVE_OUTLIER_POINTS\REMOVE_OUTLIER_POINTS\VCGLIB\EIGENLIB\EIGEN\SRC\CORE\RETURNBYVALUE.H
D:\YU\REMOVE_OUTLIER_POINTS\REMOVE_OUTLIER_POINTS\VCGLIB\EIGENLIB\EIGEN\SRC\CORE\NOALIAS.H
D:\YU\REMOVE_OUTLIER_POINTS\REMOVE_OUTLIER_POINTS\VCGLIB\EIGENLIB\EIGEN\SRC\CORE\PLAINOBJECTBASE.H
D:\YU\REMOVE_OUTLIER_POINTS\REMOVE_OUTLIER_POINTS\VCGLIB\EIGENLIB\EIGEN\SRC\CORE\MATRIX.H
D:\YU\REMOVE_OUTLIER_POINTS\REMOVE_OUTLIER_POINTS\VCGLIB\EIGENLIB\EIGEN\SRC\CORE\ARRAY.H
D:\YU\REMOVE_OUTLIER_POINTS\REMOVE_OUTLIER_POINTS\VCGLIB\EIGENLIB\EIGEN\SRC\CORE\CWISEBINARYOP.H
D:\YU\REMOVE_OUTLIER_POINTS\REMOVE_OUTLIER_POINTS\VCGLIB\EIGENLIB\EIGEN\SRC\CORE\CWISEUNARYOP.H
D:\YU\REMOVE_OUTLIER_POINTS\REMOVE_OUTLIER_POINTS\VCGLIB\EIGENLIB\EIGEN\SRC\CORE\CWISENULLARYOP.H
D:\YU\REMOVE_OUTLIER_POINTS\REMOVE_OUTLIER_POINTS\VCGLIB\EIGENLIB\EIGEN\SRC\CORE\CWISEUNARYVIEW.H
D:\YU\REMOVE_OUTLIER_POINTS\REMOVE_OUTLIER_POINTS\VCGLIB\EIGENLIB\EIGEN\SRC\CORE\SELFCWISEBINARYOP.H
D:\YU\REMOVE_OUTLIER_POINTS\REMOVE_OUTLIER_POINTS\VCGLIB\EIGENLIB\EIGEN\SRC\CORE\DOT.H
D:\YU\REMOVE_OUTLIER_POINTS\REMOVE_OUTLIER_POINTS\VCGLIB\EIGENLIB\EIGEN\SRC\CORE\STABLENORM.H
D:\YU\REMOVE_OUTLIER_POINTS\REMOVE_OUTLIER_POINTS\VCGLIB\EIGENLIB\EIGEN\SRC\CORE\MAPBASE.H
D:\YU\REMOVE_OUTLIER_POINTS\REMOVE_OUTLIER_POINTS\VCGLIB\EIGENLIB\EIGEN\SRC\CORE\STRIDE.H
D:\YU\REMOVE_OUTLIER_POINTS\REMOVE_OUTLIER_POINTS\VCGLIB\EIGENLIB\EIGEN\SRC\CORE\MAP.H
D:\YU\REMOVE_OUTLIER_POINTS\REMOVE_OUTLIER_POINTS\VCGLIB\EIGENLIB\EIGEN\SRC\CORE\BLOCK.H
D:\YU\REMOVE_OUTLIER_POINTS\REMOVE_OUTLIER_POINTS\VCGLIB\EIGENLIB\EIGEN\SRC\CORE\VECTORBLOCK.H
D:\YU\REMOVE_OUTLIER_POINTS\REMOVE_OUTLIER_POINTS\VCGLIB\EIGENLIB\EIGEN\SRC\CORE\REF.H
D:\YU\REMOVE_OUTLIER_POINTS\REMOVE_OUTLIER_POINTS\VCGLIB\EIGENLIB\EIGEN\SRC\CORE\TRANSPOSE.H
D:\YU\REMOVE_OUTLIER_POINTS\REMOVE_OUTLIER_POINTS\VCGLIB\EIGENLIB\EIGEN\SRC\CORE\DIAGONALMATRIX.H
D:\YU\REMOVE_OUTLIER_POINTS\REMOVE_OUTLIER_POINTS\VCGLIB\EIGENLIB\EIGEN\SRC\CORE\DIAGONAL.H
D:\YU\REMOVE_OUTLIER_POINTS\REMOVE_OUTLIER_POINTS\VCGLIB\EIGENLIB\EIGEN\SRC\CORE\DIAGONALPRODUCT.H
D:\YU\REMOVE_OUTLIER_POINTS\REMOVE_OUTLIER_POINTS\VCGLIB\EIGENLIB\EIGEN\SRC\CORE\PERMUTATIONMATRIX.H
D:\YU\REMOVE_OUTLIER_POINTS\REMOVE_OUTLIER_POINTS\VCGLIB\EIGENLIB\EIGEN\SRC\CORE\TRANSPOSITIONS.H
D:\YU\REMOVE_OUTLIER_POINTS\REMOVE_OUTLIER_POINTS\VCGLIB\EIGENLIB\EIGEN\SRC\CORE\REDUX.H
D:\YU\REMOVE_OUTLIER_POINTS\REMOVE_OUTLIER_POINTS\VCGLIB\EIGENLIB\EIGEN\SRC\CORE\VISITOR.H
D:\YU\REMOVE_OUTLIER_POINTS\REMOVE_OUTLIER_POINTS\VCGLIB\EIGENLIB\EIGEN\SRC\CORE\FUZZY.H
D:\YU\REMOVE_OUTLIER_POINTS\REMOVE_OUTLIER_POINTS\VCGLIB\EIGENLIB\EIGEN\SRC\CORE\IO.H
D:\YU\REMOVE_OUTLIER_POINTS\REMOVE_OUTLIER_POINTS\VCGLIB\EIGENLIB\EIGEN\SRC\CORE\SWAP.H
D:\YU\REMOVE_OUTLIER_POINTS\REMOVE_OUTLIER_POINTS\VCGLIB\EIGENLIB\EIGEN\SRC\CORE\COMMAINITIALIZER.H
D:\YU\REMOVE_OUTLIER_POINTS\REMOVE_OUTLIER_POINTS\VCGLIB\EIGENLIB\EIGEN\SRC\CORE\FLAGGED.H
D:\YU\REMOVE_OUTLIER_POINTS\REMOVE_OUTLIER_POINTS\VCGLIB\EIGENLIB\EIGEN\SRC\CORE\PRODUCTBASE.H
D:\YU\REMOVE_OUTLIER_POINTS\REMOVE_OUTLIER_POINTS\VCGLIB\EIGENLIB\EIGEN\SRC\CORE\GENERALPRODUCT.H
D:\YU\REMOVE_OUTLIER_POINTS\REMOVE_OUTLIER_POINTS\VCGLIB\EIGENLIB\EIGEN\SRC\CORE\TRIANGULARMATRIX.H
D:\YU\REMOVE_OUTLIER_POINTS\REMOVE_OUTLIER_POINTS\VCGLIB\EIGENLIB\EIGEN\SRC\CORE\SELFADJOINTVIEW.H
D:\YU\REMOVE_OUTLIER_POINTS\REMOVE_OUTLIER_POINTS\VCGLIB\EIGENLIB\EIGEN\SRC\CORE\PRODUCTS\GENERALBLOCKPANELKERNEL.H
D:\YU\REMOVE_OUTLIER_POINTS\REMOVE_OUTLIER_POINTS\VCGLIB\EIGENLIB\EIGEN\SRC\CORE\PRODUCTS\PARALLELIZER.H
D:\YU\REMOVE_OUTLIER_POINTS\REMOVE_OUTLIER_POINTS\VCGLIB\EIGENLIB\EIGEN\SRC\CORE\PRODUCTS\COEFFBASEDPRODUCT.H
D:\YU\REMOVE_OUTLIER_POINTS\REMOVE_OUTLIER_POINTS\VCGLIB\EIGENLIB\EIGEN\SRC\CORE\PRODUCTS\GENERALMATRIXVECTOR.H
D:\YU\REMOVE_OUTLIER_POINTS\REMOVE_OUTLIER_POINTS\VCGLIB\EIGENLIB\EIGEN\SRC\CORE\PRODUCTS\GENERALMATRIXMATRIX.H
D:\YU\REMOVE_OUTLIER_POINTS\REMOVE_OUTLIER_POINTS\VCGLIB\EIGENLIB\EIGEN\SRC\CORE\SOLVETRIANGULAR.H
D:\YU\REMOVE_OUTLIER_POINTS\REMOVE_OUTLIER_POINTS\VCGLIB\EIGENLIB\EIGEN\SRC\CORE\PRODUCTS\GENERALMATRIXMATRIXTRIANGULAR.H
D:\YU\REMOVE_OUTLIER_POINTS\REMOVE_OUTLIER_POINTS\VCGLIB\EIGENLIB\EIGEN\SRC\CORE\PRODUCTS\SELFADJOINTMATRIXVECTOR.H
D:\YU\REMOVE_OUTLIER_POINTS\REMOVE_OUTLIER_POINTS\VCGLIB\EIGENLIB\EIGEN\SRC\CORE\PRODUCTS\SELFADJOINTMATRIXMATRIX.H
D:\YU\REMOVE_OUTLIER_POINTS\REMOVE_OUTLIER_POINTS\VCGLIB\EIGENLIB\EIGEN\SRC\CORE\PRODUCTS\SELFADJOINTPRODUCT.H
D:\YU\REMOVE_OUTLIER_POINTS\REMOVE_OUTLIER_POINTS\VCGLIB\EIGENLIB\EIGEN\SRC\CORE\PRODUCTS\SELFADJOINTRANK2UPDATE.H
D:\YU\REMOVE_OUTLIER_POINTS\REMOVE_OUTLIER_POINTS\VCGLIB\EIGENLIB\EIGEN\SRC\CORE\PRODUCTS\TRIANGULARMATRIXVECTOR.H
D:\YU\REMOVE_OUTLIER_POINTS\REMOVE_OUTLIER_POINTS\VCGLIB\EIGENLIB\EIGEN\SRC\CORE\PRODUCTS\TRIANGULARMATRIXMATRIX.H
D:\YU\REMOVE_OUTLIER_POINTS\REMOVE_OUTLIER_POINTS\VCGLIB\EIGENLIB\EIGEN\SRC\CORE\PRODUCTS\TRIANGULARSOLVERMATRIX.H
D:\YU\REMOVE_OUTLIER_POINTS\REMOVE_OUTLIER_POINTS\VCGLIB\EIGENLIB\EIGEN\SRC\CORE\PRODUCTS\TRIANGULARSOLVERVECTOR.H
D:\YU\REMOVE_OUTLIER_POINTS\REMOVE_OUTLIER_POINTS\VCGLIB\EIGENLIB\EIGEN\SRC\CORE\BANDMATRIX.H
D:\YU\REMOVE_OUTLIER_POINTS\REMOVE_OUTLIER_POINTS\VCGLIB\EIGENLIB\EIGEN\SRC\CORE\COREITERATORS.H
D:\YU\REMOVE_OUTLIER_POINTS\REMOVE_OUTLIER_POINTS\VCGLIB\EIGENLIB\EIGEN\SRC\CORE\BOOLEANREDUX.H
D:\YU\REMOVE_OUTLIER_POINTS\REMOVE_OUTLIER_POINTS\VCGLIB\EIGENLIB\EIGEN\SRC\CORE\SELECT.H
D:\YU\REMOVE_OUTLIER_POINTS\REMOVE_OUTLIER_POINTS\VCGLIB\EIGENLIB\EIGEN\SRC\CORE\VECTORWISEOP.H
D:\YU\REMOVE_OUTLIER_POINTS\REMOVE_OUTLIER_POINTS\VCGLIB\EIGENLIB\EIGEN\SRC\CORE\RANDOM.H
D:\YU\REMOVE_OUTLIER_POINTS\REMOVE_OUTLIER_POINTS\VCGLIB\EIGENLIB\EIGEN\SRC\CORE\REPLICATE.H
D:\YU\REMOVE_OUTLIER_POINTS\REMOVE_OUTLIER_POINTS\VCGLIB\EIGENLIB\EIGEN\SRC\CORE\REVERSE.H
D:\YU\REMOVE_OUTLIER_POINTS\REMOVE_OUTLIER_POINTS\VCGLIB\EIGENLIB\EIGEN\SRC\CORE\ARRAYBASE.H
D:\YU\REMOVE_OUTLIER_POINTS\REMOVE_OUTLIER_POINTS\VCGLIB\EIGENLIB\EIGEN\SRC\PLUGINS\ARRAYCWISEUNARYOPS.H
D:\YU\REMOVE_OUTLIER_POINTS\REMOVE_OUTLIER_POINTS\VCGLIB\EIGENLIB\EIGEN\SRC\PLUGINS\ARRAYCWISEBINARYOPS.H
D:\YU\REMOVE_OUTLIER_POINTS\REMOVE_OUTLIER_POINTS\VCGLIB\EIGENLIB\EIGEN\SRC\CORE\ARRAYWRAPPER.H
D:\YU\REMOVE_OUTLIER_POINTS\REMOVE_OUTLIER_POINTS\VCGLIB\EIGENLIB\EIGEN\SRC\CORE\GLOBALFUNCTIONS.H
D:\YU\REMOVE_OUTLIER_POINTS\REMOVE_OUTLIER_POINTS\VCGLIB\EIGENLIB\EIGEN\SRC\CORE\UTIL\REENABLESTUPIDWARNINGS.H
D:\YU\REMOVE_OUTLIER_POINTS\REMOVE_OUTLIER_POINTS\VCGLIB\EIGENLIB\EIGEN\LU
D:\YU\REMOVE_OUTLIER_POINTS\REMOVE_OUTLIER_POINTS\VCGLIB\EIGENLIB\EIGEN\SRC\MISC\SOLVE.H
D:\YU\REMOVE_OUTLIER_POINTS\REMOVE_OUTLIER_POINTS\VCGLIB\EIGENLIB\EIGEN\SRC\MISC\KERNEL.H
D:\YU\REMOVE_OUTLIER_POINTS\REMOVE_OUTLIER_POINTS\VCGLIB\EIGENLIB\EIGEN\SRC\MISC\IMAGE.H
D:\YU\REMOVE_OUTLIER_POINTS\REMOVE_OUTLIER_POINTS\VCGLIB\EIGENLIB\EIGEN\SRC\LU\FULLPIVLU.H
D:\YU\REMOVE_OUTLIER_POINTS\REMOVE_OUTLIER_POINTS\VCGLIB\EIGENLIB\EIGEN\SRC\LU\PARTIALPIVLU.H
D:\YU\REMOVE_OUTLIER_POINTS\REMOVE_OUTLIER_POINTS\VCGLIB\EIGENLIB\EIGEN\SRC\LU\DETERMINANT.H
D:\YU\REMOVE_OUTLIER_POINTS\REMOVE_OUTLIER_POINTS\VCGLIB\EIGENLIB\EIGEN\SRC\LU\INVERSE.H
D:\YU\REMOVE_OUTLIER_POINTS\REMOVE_OUTLIER_POINTS\VCGLIB\EIGENLIB\EIGEN\SRC\LU\ARCH\INVERSE_SSE.H
D:\YU\REMOVE_OUTLIER_POINTS\REMOVE_OUTLIER_POINTS\VCGLIB\VCG\SPACE\LINE3.H
D:\YU\REMOVE_OUTLIER_POINTS\REMOVE_OUTLIER_POINTS\VCGLIB\VCG\SPACE\COLOR4.H
D:\YU\REMOVE_OUTLIER_POINTS\REMOVE_OUTLIER_POINTS\VCGLIB\VCG\MATH\SHOT.H
D:\YU\REMOVE_OUTLIER_POINTS\REMOVE_OUTLIER_POINTS\VCGLIB\VCG\SPACE\POINT2.H
D:\YU\REMOVE_OUTLIER_POINTS\REMOVE_OUTLIER_POINTS\VCGLIB\VCG\SPACE\DEPRECATED_POINT2.H
D:\YU\REMOVE_OUTLIER_POINTS\REMOVE_OUTLIER_POINTS\VCGLIB\VCG\MATH\SIMILARITY.H
D:\YU\REMOVE_OUTLIER_POINTS\REMOVE_OUTLIER_POINTS\VCGLIB\VCG\MATH\QUATERNION.H
D:\YU\REMOVE_OUTLIER_POINTS\REMOVE_OUTLIER_POINTS\VCGLIB\VCG\MATH\MATRIX33.H
D:\YU\REMOVE_OUTLIER_POINTS\REMOVE_OUTLIER_POINTS\VCGLIB\VCG\MATH\CAMERA.H
D:\YU\REMOVE_OUTLIER_POINTS\REMOVE_OUTLIER_POINTS\VCGLIB\VCG\SPACE\TEXCOORD2.H
D:\YU\REMOVE_OUTLIER_POINTS\REMOVE_OUTLIER_POINTS\VCGLIB\VCG\SPACE\TRIANGLE3.H
D:\YU\REMOVE_OUTLIER_POINTS\REMOVE_OUTLIER_POINTS\VCGLIB\VCG\SPACE\SEGMENT3.H
D:\YU\REMOVE_OUTLIER_POINTS\REMOVE_OUTLIER_POINTS\VCGLIB\VCG\SPACE\TRIANGLE2.H
D:\YU\REMOVE_OUTLIER_POINTS\REMOVE_OUTLIER_POINTS\VCGLIB\VCG\SPACE\SEGMENT2.H
D:\YU\REMOVE_OUTLIER_POINTS\REMOVE_OUTLIER_POINTS\VCGLIB\VCG\SPACE\LINE2.H
D:\YU\REMOVE_OUTLIER_POINTS\REMOVE_OUTLIER_POINTS\VCGLIB\VCG\SPACE\BOX2.H
D:\YU\REMOVE_OUTLIER_POINTS\REMOVE_OUTLIER_POINTS\VCGLIB\VCG\SPACE\POLYGON3.H
D:\YU\REMOVE_OUTLIER_POINTS\REMOVE_OUTLIER_POINTS\VCGLIB\VCG\SPACE\FITTING3.H
D:\YU\REMOVE_OUTLIER_POINTS\REMOVE_OUTLIER_POINTS\VCGLIB\EIGENLIB\EIGEN\EIGENVALUES
D:\YU\REMOVE_OUTLIER_POINTS\REMOVE_OUTLIER_POINTS\VCGLIB\EIGENLIB\EIGEN\CHOLESKY
D:\YU\REMOVE_OUTLIER_POINTS\REMOVE_OUTLIER_POINTS\VCGLIB\EIGENLIB\EIGEN\SRC\CHOLESKY\LLT.H
D:\YU\REMOVE_OUTLIER_POINTS\REMOVE_OUTLIER_POINTS\VCGLIB\EIGENLIB\EIGEN\SRC\CHOLESKY\LDLT.H
D:\YU\REMOVE_OUTLIER_POINTS\REMOVE_OUTLIER_POINTS\VCGLIB\EIGENLIB\EIGEN\JACOBI
D:\YU\REMOVE_OUTLIER_POINTS\REMOVE_OUTLIER_POINTS\VCGLIB\EIGENLIB\EIGEN\SRC\JACOBI\JACOBI.H
D:\YU\REMOVE_OUTLIER_POINTS\REMOVE_OUTLIER_POINTS\VCGLIB\EIGENLIB\EIGEN\HOUSEHOLDER
D:\YU\REMOVE_OUTLIER_POINTS\REMOVE_OUTLIER_POINTS\VCGLIB\EIGENLIB\EIGEN\SRC\HOUSEHOLDER\HOUSEHOLDER.H
D:\YU\REMOVE_OUTLIER_POINTS\REMOVE_OUTLIER_POINTS\VCGLIB\EIGENLIB\EIGEN\SRC\HOUSEHOLDER\HOUSEHOLDERSEQUENCE.H
D:\YU\REMOVE_OUTLIER_POINTS\REMOVE_OUTLIER_POINTS\VCGLIB\EIGENLIB\EIGEN\SRC\HOUSEHOLDER\BLOCKHOUSEHOLDER.H
D:\YU\REMOVE_OUTLIER_POINTS\REMOVE_OUTLIER_POINTS\VCGLIB\EIGENLIB\EIGEN\GEOMETRY
D:\YU\REMOVE_OUTLIER_POINTS\REMOVE_OUTLIER_POINTS\VCGLIB\EIGENLIB\EIGEN\SVD
D:\YU\REMOVE_OUTLIER_POINTS\REMOVE_OUTLIER_POINTS\VCGLIB\EIGENLIB\EIGEN\QR
D:\YU\REMOVE_OUTLIER_POINTS\REMOVE_OUTLIER_POINTS\VCGLIB\EIGENLIB\EIGEN\SRC\QR\HOUSEHOLDERQR.H
D:\YU\REMOVE_OUTLIER_POINTS\REMOVE_OUTLIER_POINTS\VCGLIB\EIGENLIB\EIGEN\SRC\QR\FULLPIVHOUSEHOLDERQR.H
D:\YU\REMOVE_OUTLIER_POINTS\REMOVE_OUTLIER_POINTS\VCGLIB\EIGENLIB\EIGEN\SRC\QR\COLPIVHOUSEHOLDERQR.H
D:\YU\REMOVE_OUTLIER_POINTS\REMOVE_OUTLIER_POINTS\VCGLIB\EIGENLIB\EIGEN\SRC\SVD\JACOBISVD.H
D:\YU\REMOVE_OUTLIER_POINTS\REMOVE_OUTLIER_POINTS\VCGLIB\EIGENLIB\EIGEN\SRC\SVD\UPPERBIDIAGONALIZATION.H
D:\YU\REMOVE_OUTLIER_POINTS\REMOVE_OUTLIER_POINTS\VCGLIB\EIGENLIB\EIGEN\SRC\GEOMETRY\ORTHOMETHODS.H
D:\YU\REMOVE_OUTLIER_POINTS\REMOVE_OUTLIER_POINTS\VCGLIB\EIGENLIB\EIGEN\SRC\GEOMETRY\EULERANGLES.H
D:\YU\REMOVE_OUTLIER_POINTS\REMOVE_OUTLIER_POINTS\VCGLIB\EIGENLIB\EIGEN\SRC\GEOMETRY\HOMOGENEOUS.H
D:\YU\REMOVE_OUTLIER_POINTS\REMOVE_OUTLIER_POINTS\VCGLIB\EIGENLIB\EIGEN\SRC\GEOMETRY\ROTATIONBASE.H
D:\YU\REMOVE_OUTLIER_POINTS\REMOVE_OUTLIER_POINTS\VCGLIB\EIGENLIB\EIGEN\SRC\GEOMETRY\ROTATION2D.H
D:\YU\REMOVE_OUTLIER_POINTS\REMOVE_OUTLIER_POINTS\VCGLIB\EIGENLIB\EIGEN\SRC\GEOMETRY\QUATERNION.H
D:\YU\REMOVE_OUTLIER_POINTS\REMOVE_OUTLIER_POINTS\VCGLIB\EIGENLIB\EIGEN\SRC\GEOMETRY\ANGLEAXIS.H
D:\YU\REMOVE_OUTLIER_POINTS\REMOVE_OUTLIER_POINTS\VCGLIB\EIGENLIB\EIGEN\SRC\GEOMETRY\TRANSFORM.H
D:\YU\REMOVE_OUTLIER_POINTS\REMOVE_OUTLIER_POINTS\VCGLIB\EIGENLIB\EIGEN\SRC\GEOMETRY\TRANSLATION.H
D:\YU\REMOVE_OUTLIER_POINTS\REMOVE_OUTLIER_POINTS\VCGLIB\EIGENLIB\EIGEN\SRC\GEOMETRY\SCALING.H
D:\YU\REMOVE_OUTLIER_POINTS\REMOVE_OUTLIER_POINTS\VCGLIB\EIGENLIB\EIGEN\SRC\GEOMETRY\HYPERPLANE.H
D:\YU\REMOVE_OUTLIER_POINTS\REMOVE_OUTLIER_POINTS\VCGLIB\EIGENLIB\EIGEN\SRC\GEOMETRY\PARAMETRIZEDLINE.H
D:\YU\REMOVE_OUTLIER_POINTS\REMOVE_OUTLIER_POINTS\VCGLIB\EIGENLIB\EIGEN\SRC\GEOMETRY\ALIGNEDBOX.H
D:\YU\REMOVE_OUTLIER_POINTS\REMOVE_OUTLIER_POINTS\VCGLIB\EIGENLIB\EIGEN\SRC\GEOMETRY\UMEYAMA.H
D:\YU\REMOVE_OUTLIER_POINTS\REMOVE_OUTLIER_POINTS\VCGLIB\EIGENLIB\EIGEN\SRC\GEOMETRY\ARCH\GEOMETRY_SSE.H
D:\YU\REMOVE_OUTLIER_POINTS\REMOVE_OUTLIER_POINTS\VCGLIB\EIGENLIB\EIGEN\SRC\EIGENVALUES\TRIDIAGONALIZATION.H
D:\YU\REMOVE_OUTLIER_POINTS\REMOVE_OUTLIER_POINTS\VCGLIB\EIGENLIB\EIGEN\SRC\EIGENVALUES\REALSCHUR.H
D:\YU\REMOVE_OUTLIER_POINTS\REMOVE_OUTLIER_POINTS\VCGLIB\EIGENLIB\EIGEN\SRC\EIGENVALUES\HESSENBERGDECOMPOSITION.H
D:\YU\REMOVE_OUTLIER_POINTS\REMOVE_OUTLIER_POINTS\VCGLIB\EIGENLIB\EIGEN\SRC\EIGENVALUES\EIGENSOLVER.H
D:\YU\REMOVE_OUTLIER_POINTS\REMOVE_OUTLIER_POINTS\VCGLIB\EIGENLIB\EIGEN\SRC\EIGENVALUES\SELFADJOINTEIGENSOLVER.H
D:\YU\REMOVE_OUTLIER_POINTS\REMOVE_OUTLIER_POINTS\VCGLIB\EIGENLIB\EIGEN\SRC\EIGENVALUES\GENERALIZEDSELFADJOINTEIGENSOLVER.H
D:\YU\REMOVE_OUTLIER_POINTS\REMOVE_OUTLIER_POINTS\VCGLIB\EIGENLIB\EIGEN\SRC\EIGENVALUES\COMPLEXSCHUR.H
D:\YU\REMOVE_OUTLIER_POINTS\REMOVE_OUTLIER_POINTS\VCGLIB\EIGENLIB\EIGEN\SRC\EIGENVALUES\COMPLEXEIGENSOLVER.H
D:\YU\REMOVE_OUTLIER_POINTS\REMOVE_OUTLIER_POINTS\VCGLIB\EIGENLIB\EIGEN\SRC\EIGENVALUES\REALQZ.H
D:\YU\REMOVE_OUTLIER_POINTS\REMOVE_OUTLIER_POINTS\VCGLIB\EIGENLIB\EIGEN\SRC\EIGENVALUES\GENERALIZEDEIGENSOLVER.H
D:\YU\REMOVE_OUTLIER_POINTS\REMOVE_OUTLIER_POINTS\VCGLIB\EIGENLIB\EIGEN\SRC\EIGENVALUES\MATRIXBASEEIGENVALUES.H
D:\YU\REMOVE_OUTLIER_POINTS\REMOVE_OUTLIER_POINTS\VCGLIB\VCG\SPACE\POINT_MATCHING.H
D:\YU\REMOVE_OUTLIER_POINTS\REMOVE_OUTLIER_POINTS\VCGLIB\EIGENLIB\EIGEN\DENSE
D:\YU\REMOVE_OUTLIER_POINTS\REMOVE_OUTLIER_POINTS\VCGLIB\VCG\CONTAINER\DERIVATION_CHAIN.H
D:\YU\REMOVE_OUTLIER_POINTS\REMOVE_OUTLIER_POINTS\VCGLIB\VCG\COMPLEX\ALL_TYPES.H
D:\YU\REMOVE_OUTLIER_POINTS\REMOVE_OUTLIER_POINTS\VCGLIB\VCG\SIMPLEX\VERTEX\COMPONENT.H
D:\YU\REMOVE_OUTLIER_POINTS\REMOVE_OUTLIER_POINTS\VCGLIB\VCG\SIMPLEX\VERTEX\COMPONENT_OCF.H
D:\YU\REMOVE_OUTLIER_POINTS\REMOVE_OUTLIER_POINTS\VCGLIB\VCG\SIMPLEX\VERTEX\BASE.H
D:\YU\REMOVE_OUTLIER_POINTS\REMOVE_OUTLIER_POINTS\VCGLIB\VCG\SIMPLEX\FACE\COMPONENT.H
D:\YU\REMOVE_OUTLIER_POINTS\REMOVE_OUTLIER_POINTS\VCGLIB\VCG\SIMPLEX\FACE\COMPONENT_OCF.H
D:\YU\REMOVE_OUTLIER_POINTS\REMOVE_OUTLIER_POINTS\VCGLIB\VCG\SIMPLEX\FACE\COMPONENT_POLYGON.H
D:\YU\REMOVE_OUTLIER_POINTS\REMOVE_OUTLIER_POINTS\VCGLIB\VCG\SIMPLEX\FACE\BASE.H
D:\YU\REMOVE_OUTLIER_POINTS\REMOVE_OUTLIER_POINTS\VCGLIB\VCG\SIMPLEX\EDGE\COMPONENT.H
D:\YU\REMOVE_OUTLIER_POINTS\REMOVE_OUTLIER_POINTS\VCGLIB\VCG\SIMPLEX\EDGE\BASE.H
D:\YU\REMOVE_OUTLIER_POINTS\REMOVE_OUTLIER_POINTS\VCGLIB\VCG\CONNECTORS\HEDGE_COMPONENT.H
D:\YU\REMOVE_OUTLIER_POINTS\REMOVE_OUTLIER_POINTS\VCGLIB\VCG\CONNECTORS\HEDGE.H
D:\YU\REMOVE_OUTLIER_POINTS\REMOVE_OUTLIER_POINTS\VCGLIB\VCG\COMPLEX\BASE.H
D:\YU\REMOVE_OUTLIER_POINTS\REMOVE_OUTLIER_POINTS\VCGLIB\VCG\COMPLEX\ALLOCATE.H
D:\YU\REMOVE_OUTLIER_POINTS\REMOVE_OUTLIER_POINTS\VCGLIB\VCG\COMPLEX\ALGORITHMS\UPDATE\SELECTION.H
C:\PROGRAM FILES (X86)\MICROSOFT VISUAL STUDIO\2017\COMMUNITY\VC\TOOLS\MSVC\14.12.25827\INCLUDE\QUEUE
D:\YU\REMOVE_OUTLIER_POINTS\REMOVE_OUTLIER_POINTS\VCGLIB\VCG\COMPLEX\ALGORITHMS\MESH_ASSERT.H
D:\YU\REMOVE_OUTLIER_POINTS\REMOVE_OUTLIER_POINTS\VCGLIB\VCG\COMPLEX\APPEND.H
D:\YU\REMOVE_OUTLIER_POINTS\REMOVE_OUTLIER_POINTS\VCGLIB\VCG\SIMPLEX\EDGE\TOPOLOGY.H
D:\YU\REMOVE_OUTLIER_POINTS\REMOVE_OUTLIER_POINTS\VCGLIB\VCG\SIMPLEX\EDGE\POS.H
D:\YU\REMOVE_OUTLIER_POINTS\REMOVE_OUTLIER_POINTS\VCGLIB\VCG\COMPLEX\ALGORITHMS\CLOSEST.H
D:\YU\REMOVE_OUTLIER_POINTS\REMOVE_OUTLIER_POINTS\VCGLIB\VCG\SPACE\INDEX\GRID_UTIL.H
D:\YU\REMOVE_OUTLIER_POINTS\REMOVE_OUTLIER_POINTS\VCGLIB\VCG\SPACE\INDEX\BASE.H
D:\YU\REMOVE_OUTLIER_POINTS\REMOVE_OUTLIER_POINTS\VCGLIB\VCG\SPACE\RAY3.H
D:\YU\REMOVE_OUTLIER_POINTS\REMOVE_OUTLIER_POINTS\VCGLIB\VCG\SPACE\INDEX\SPACE_ITERATORS.H
D:\YU\REMOVE_OUTLIER_POINTS\REMOVE_OUTLIER_POINTS\VCGLIB\VCG\SPACE\INTERSECTION3.H
D:\YU\REMOVE_OUTLIER_POINTS\REMOVE_OUTLIER_POINTS\VCGLIB\VCG\SPACE\INTERSECTION\TRIANGLE_TRIANGLE3.H
D:\YU\REMOVE_OUTLIER_POINTS\REMOVE_OUTLIER_POINTS\VCGLIB\VCG\SPACE\INDEX\GRID_CLOSEST.H
D:\YU\REMOVE_OUTLIER_POINTS\REMOVE_OUTLIER_POINTS\VCGLIB\VCG\SIMPLEX\FACE\DISTANCE.H
D:\YU\REMOVE_OUTLIER_POINTS\REMOVE_OUTLIER_POINTS\VCGLIB\VCG\SPACE\DISTANCE3.H
D:\YU\REMOVE_OUTLIER_POINTS\REMOVE_OUTLIER_POINTS\VCGLIB\VCG\SIMPLEX\EDGE\DISTANCE.H
D:\YU\REMOVE_OUTLIER_POINTS\REMOVE_OUTLIER_POINTS\VCGLIB\VCG\SIMPLEX\VERTEX\DISTANCE.H
D:\YU\REMOVE_OUTLIER_POINTS\REMOVE_OUTLIER_POINTS\VCGLIB\VCG\SPACE\INDEX\GRID_STATIC_PTR.H
D:\YU\REMOVE_OUTLIER_POINTS\REMOVE_OUTLIER_POINTS\VCGLIB\VCG\SPACE\INDEX\SPATIAL_HASHING.H
C:\PROGRAM FILES (X86)\MICROSOFT VISUAL STUDIO\2017\COMMUNITY\VC\TOOLS\MSVC\14.12.25827\INCLUDE\UNORDERED_MAP
C:\PROGRAM FILES (X86)\MICROSOFT VISUAL STUDIO\2017\COMMUNITY\VC\TOOLS\MSVC\14.12.25827\INCLUDE\XHASH
C:\PROGRAM FILES (X86)\MICROSOFT VISUAL STUDIO\2017\COMMUNITY\VC\TOOLS\MSVC\14.12.25827\INCLUDE\LIST
D:\YU\REMOVE_OUTLIER_POINTS\REMOVE_OUTLIER_POINTS\VCGLIB\VCG\COMPLEX\ALGORITHMS\UPDATE\NORMAL.H
D:\YU\REMOVE_OUTLIER_POINTS\REMOVE_OUTLIER_POINTS\VCGLIB\VCG\COMPLEX\ALGORITHMS\POLYGON_SUPPORT.H
D:\YU\REMOVE_OUTLIER_POINTS\REMOVE_OUTLIER_POINTS\VCGLIB\VCG\SIMPLEX\FACE\JUMPING_POS.H
D:\YU\REMOVE_OUTLIER_POINTS\REMOVE_OUTLIER_POINTS\VCGLIB\VCG\SPACE\PLANAR_POLYGON_TESSELLATION.H
D:\YU\REMOVE_OUTLIER_POINTS\REMOVE_OUTLIER_POINTS\VCGLIB\VCG\MATH\RANDOM_GENERATOR.H
D:\YU\REMOVE_OUTLIER_POINTS\REMOVE_OUTLIER_POINTS\VCGLIB\VCG\COMPLEX\ALGORITHMS\UPDATE\POSITION.H
D:\YU\REMOVE_OUTLIER_POINTS\REMOVE_OUTLIER_POINTS\VCGLIB\VCG\COMPLEX\ALGORITHMS\UPDATE\BOUNDING.H
D:\YU\REMOVE_OUTLIER_POINTS\REMOVE_OUTLIER_POINTS\VCGLIB\VCG\COMPLEX\ALGORITHMS\SMOOTH.H
D:\YU\REMOVE_OUTLIER_POINTS\REMOVE_OUTLIER_POINTS\VCGLIB\VCG\COMPLEX\ALGORITHMS\UPDATE\HALFEDGE_TOPOLOGY.H
D:\YU\REMOVE_OUTLIER_POINTS\REMOVE_OUTLIER_POINTS\VCGLIB\VCG\CONNECTORS\HALFEDGE_POS.H
D:\YU\REMOVE_OUTLIER_POINTS\REMOVE_OUTLIER_POINTS\VCGLIB\VCG\SPACE\INDEX\KDTREE\KDTREE.H
D:\YU\REMOVE_OUTLIER_POINTS\REMOVE_OUTLIER_POINTS\VCGLIB\VCG\SPACE\INDEX\KDTREE\PRIORITYQUEUE.H
D:\YU\REMOVE_OUTLIER_POINTS\REMOVE_OUTLIER_POINTS\VCGLIB\WRAP\IO_TRIMESH\EXPORT_PLY.H
D:\YU\REMOVE_OUTLIER_POINTS\REMOVE_OUTLIER_POINTS\VCGLIB\WRAP\IO_TRIMESH\PRECISION.H
D:\YU\REMOVE_OUTLIER_POINTS\REMOVE_OUTLIER_POINTS\MESH.H
D:\YU\REMOVE_OUTLIER_POINTS\REMOVE_OUTLIER_POINTS\VCGLIB\VCG\COMPLEX\ALGORITHMS\UPDATE\COLOR.H
C:\PROGRAM FILES (X86)\WINDOWS KITS\10\INCLUDE\10.0.16299.0\UCRT\TIME.H
D:\YU\REMOVE_OUTLIER_POINTS\REMOVE_OUTLIER_POINTS\VCGLIB\VCG\MATH\HISTOGRAM.H
D:\YU\REMOVE_OUTLIER_POINTS\REMOVE_OUTLIER_POINTS\VCGLIB\VCG\MATH\PERLIN_NOISE.H
D:\YU\REMOVE_OUTLIER_POINTS\REMOVE_OUTLIER_POINTS\VCGLIB\VCG\COMPLEX\ALGORITHMS\STAT.H
D:\YU\REMOVE_OUTLIER_POINTS\REMOVE_OUTLIER_POINTS\VCGLIB\VCG\COMPLEX\ALGORITHMS\INERTIA.H
D:\YU\REMOVE_OUTLIER_POINTS\REMOVE_OUTLIER_POINTS\VCGLIB\VCG\COMPLEX\ALGORITHMS\UPDATE\QUALITY.H
^D:\YU\REMOVE_OUTLIER_POINTS\REMOVE_OUTLIER_POINTS\REMOVE_OUTLIER_POINTS.CPP
C:\PROGRAM FILES (X86)\MICROSOFT VISUAL STUDIO\2017\COMMUNITY\VC\TOOLS\MSVC\14.12.25827\BIN\HOSTX86\X64\1033\CLUI.DLL
C:\WINDOWS\GLOBALIZATION\SORTING\SORTDEFAULT.NLS
C:\WINDOWS\SYSTEM32\TZRES.DLL
D:\YU\REMOVE_OUTLIER_POINTS\REMOVE_OUTLIER_POINTS\REMOVEOUTLIERS.H
D:\YU\REMOVE_OUTLIER_POINTS\REMOVE_OUTLIER_POINTS\VCGLIB\WRAP\IO_TRIMESH\IMPORT_PLY.H
C:\PROGRAM FILES (X86)\WINDOWS KITS\10\INCLUDE\10.0.16299.0\UCRT\STDDEF.H
C:\PROGRAM FILES (X86)\WINDOWS KITS\10\INCLUDE\10.0.16299.0\UCRT\CORECRT.H
C:\PROGRAM FILES (X86)\MICROSOFT VISUAL STUDIO\2017\COMMUNITY\VC\TOOLS\MSVC\14.12.25827\INCLUDE\VCRUNTIME.H
C:\PROGRAM FILES (X86)\MICROSOFT VISUAL STUDIO\2017\COMMUNITY\VC\TOOLS\MSVC\14.12.25827\INCLUDE\SAL.H
C:\PROGRAM FILES (X86)\MICROSOFT VISUAL STUDIO\2017\COMMUNITY\VC\TOOLS\MSVC\14.12.25827\INCLUDE\CONCURRENCYSAL.H
C:\PROGRAM FILES (X86)\MICROSOFT VISUAL STUDIO\2017\COMMUNITY\VC\TOOLS\MSVC\14.12.25827\INCLUDE\VADEFS.H
D:\YU\REMOVE_OUTLIER_POINTS\REMOVE_OUTLIER_POINTS\VCGLIB\WRAP\CALLBACK.H
D:\YU\REMOVE_OUTLIER_POINTS\REMOVE_OUTLIER_POINTS\VCGLIB\WRAP\PLY\PLYLIB.H
C:\PROGRAM FILES (X86)\WINDOWS KITS\10\INCLUDE\10.0.16299.0\UCRT\MEMORY.H
C:\PROGRAM FILES (X86)\WINDOWS KITS\10\INCLUDE\10.0.16299.0\UCRT\CORECRT_MEMORY.H
C:\PROGRAM FILES (X86)\WINDOWS KITS\10\INCLUDE\10.0.16299.0\UCRT\CORECRT_MEMCPY_S.H
C:\PROGRAM FILES (X86)\WINDOWS KITS\10\INCLUDE\10.0.16299.0\UCRT\ERRNO.H
C:\PROGRAM FILES (X86)\MICROSOFT VISUAL STUDIO\2017\COMMUNITY\VC\TOOLS\MSVC\14.12.25827\INCLUDE\VCRUNTIME_STRING.H
C:\PROGRAM FILES (X86)\MICROSOFT VISUAL STUDIO\2017\COMMUNITY\VC\TOOLS\MSVC\14.12.25827\INCLUDE\VECTOR
C:\PROGRAM FILES (X86)\MICROSOFT VISUAL STUDIO\2017\COMMUNITY\VC\TOOLS\MSVC\14.12.25827\INCLUDE\XMEMORY
C:\PROGRAM FILES (X86)\MICROSOFT VISUAL STUDIO\2017\COMMUNITY\VC\TOOLS\MSVC\14.12.25827\INCLUDE\XMEMORY0
C:\PROGRAM FILES (X86)\MICROSOFT VISUAL STUDIO\2017\COMMUNITY\VC\TOOLS\MSVC\14.12.25827\INCLUDE\CSTDINT
C:\PROGRAM FILES (X86)\MICROSOFT VISUAL STUDIO\2017\COMMUNITY\VC\TOOLS\MSVC\14.12.25827\INCLUDE\YVALS.H
C:\PROGRAM FILES (X86)\MICROSOFT VISUAL STUDIO\2017\COMMUNITY\VC\TOOLS\MSVC\14.12.25827\INCLUDE\XKEYCHECK.H
C:\PROGRAM FILES (X86)\MICROSOFT VISUAL STUDIO\2017\COMMUNITY\VC\TOOLS\MSVC\14.12.25827\INCLUDE\CRTDEFS.H
C:\PROGRAM FILES (X86)\MICROSOFT VISUAL STUDIO\2017\COMMUNITY\VC\TOOLS\MSVC\14.12.25827\INCLUDE\USE_ANSI.H
C:\PROGRAM FILES (X86)\MICROSOFT VISUAL STUDIO\2017\COMMUNITY\VC\TOOLS\MSVC\14.12.25827\INCLUDE\STDINT.H
C:\PROGRAM FILES (X86)\MICROSOFT VISUAL STUDIO\2017\COMMUNITY\VC\TOOLS\MSVC\14.12.25827\INCLUDE\CSTDLIB
C:\PROGRAM FILES (X86)\WINDOWS KITS\10\INCLUDE\10.0.16299.0\UCRT\STDLIB.H
C:\PROGRAM FILES (X86)\WINDOWS KITS\10\INCLUDE\10.0.16299.0\UCRT\CORECRT_MALLOC.H
C:\PROGRAM FILES (X86)\WINDOWS KITS\10\INCLUDE\10.0.16299.0\UCRT\CORECRT_SEARCH.H
C:\PROGRAM FILES (X86)\WINDOWS KITS\10\INCLUDE\10.0.16299.0\UCRT\CORECRT_WSTDLIB.H
C:\PROGRAM FILES (X86)\MICROSOFT VISUAL STUDIO\2017\COMMUNITY\VC\TOOLS\MSVC\14.12.25827\INCLUDE\LIMITS.H
C:\PROGRAM FILES (X86)\WINDOWS KITS\10\INCLUDE\10.0.16299.0\UCRT\MATH.H
C:\PROGRAM FILES (X86)\WINDOWS KITS\10\INCLUDE\10.0.16299.0\UCRT\CORECRT_MATH.H
C:\PROGRAM FILES (X86)\MICROSOFT VISUAL STUDIO\2017\COMMUNITY\VC\TOOLS\MSVC\14.12.25827\INCLUDE\LIMITS
C:\PROGRAM FILES (X86)\MICROSOFT VISUAL STUDIO\2017\COMMUNITY\VC\TOOLS\MSVC\14.12.25827\INCLUDE\YMATH.H
C:\PROGRAM FILES (X86)\MICROSOFT VISUAL STUDIO\2017\COMMUNITY\VC\TOOLS\MSVC\14.12.25827\INCLUDE\CFLOAT
C:\PROGRAM FILES (X86)\WINDOWS KITS\10\INCLUDE\10.0.16299.0\UCRT\FLOAT.H
C:\PROGRAM FILES (X86)\MICROSOFT VISUAL STUDIO\2017\COMMUNITY\VC\TOOLS\MSVC\14.12.25827\INCLUDE\CLIMITS
C:\PROGRAM FILES (X86)\MICROSOFT VISUAL STUDIO\2017\COMMUNITY\VC\TOOLS\MSVC\14.12.25827\INCLUDE\CMATH
C:\PROGRAM FILES (X86)\MICROSOFT VISUAL STUDIO\2017\COMMUNITY\VC\TOOLS\MSVC\14.12.25827\INCLUDE\XTGMATH.H
C:\PROGRAM FILES (X86)\MICROSOFT VISUAL STUDIO\2017\COMMUNITY\VC\TOOLS\MSVC\14.12.25827\INCLUDE\XTR1COMMON
C:\PROGRAM FILES (X86)\MICROSOFT VISUAL STUDIO\2017\COMMUNITY\VC\TOOLS\MSVC\14.12.25827\INCLUDE\CWCHAR
C:\PROGRAM FILES (X86)\WINDOWS KITS\10\INCLUDE\10.0.16299.0\UCRT\WCHAR.H
C:\PROGRAM FILES (X86)\WINDOWS KITS\10\INCLUDE\10.0.16299.0\UCRT\CORECRT_WCONIO.H
C:\PROGRAM FILES (X86)\WINDOWS KITS\10\INCLUDE\10.0.16299.0\UCRT\CORECRT_STDIO_CONFIG.H
C:\PROGRAM FILES (X86)\WINDOWS KITS\10\INCLUDE\10.0.16299.0\UCRT\CORECRT_WCTYPE.H
C:\PROGRAM FILES (X86)\WINDOWS KITS\10\INCLUDE\10.0.16299.0\UCRT\CORECRT_WDIRECT.H
C:\PROGRAM FILES (X86)\WINDOWS KITS\10\INCLUDE\10.0.16299.0\UCRT\CORECRT_WIO.H
C:\PROGRAM FILES (X86)\WINDOWS KITS\10\INCLUDE\10.0.16299.0\UCRT\CORECRT_SHARE.H
C:\PROGRAM FILES (X86)\WINDOWS KITS\10\INCLUDE\10.0.16299.0\UCRT\CORECRT_WPROCESS.H
C:\PROGRAM FILES (X86)\WINDOWS KITS\10\INCLUDE\10.0.16299.0\UCRT\CORECRT_WSTDIO.H
C:\PROGRAM FILES (X86)\WINDOWS KITS\10\INCLUDE\10.0.16299.0\UCRT\CORECRT_WSTRING.H
C:\PROGRAM FILES (X86)\WINDOWS KITS\10\INCLUDE\10.0.16299.0\UCRT\CORECRT_WTIME.H
C:\PROGRAM FILES (X86)\WINDOWS KITS\10\INCLUDE\10.0.16299.0\UCRT\SYS\STAT.H
C:\PROGRAM FILES (X86)\WINDOWS KITS\10\INCLUDE\10.0.16299.0\UCRT\SYS\TYPES.H
C:\PROGRAM FILES (X86)\MICROSOFT VISUAL STUDIO\2017\COMMUNITY\VC\TOOLS\MSVC\14.12.25827\INCLUDE\XSTDDEF
C:\PROGRAM FILES (X86)\MICROSOFT VISUAL STUDIO\2017\COMMUNITY\VC\TOOLS\MSVC\14.12.25827\INCLUDE\CSTDDEF
C:\PROGRAM FILES (X86)\MICROSOFT VISUAL STUDIO\2017\COMMUNITY\VC\TOOLS\MSVC\14.12.25827\INCLUDE\INITIALIZER_LIST
C:\PROGRAM FILES (X86)\MICROSOFT VISUAL STUDIO\2017\COMMUNITY\VC\TOOLS\MSVC\14.12.25827\INCLUDE\NEW
C:\PROGRAM FILES (X86)\MICROSOFT VISUAL STUDIO\2017\COMMUNITY\VC\TOOLS\MSVC\14.12.25827\INCLUDE\EXCEPTION
C:\PROGRAM FILES (X86)\MICROSOFT VISUAL STUDIO\2017\COMMUNITY\VC\TOOLS\MSVC\14.12.25827\INCLUDE\TYPE_TRAITS
C:\PROGRAM FILES (X86)\WINDOWS KITS\10\INCLUDE\10.0.16299.0\UCRT\MALLOC.H
C:\PROGRAM FILES (X86)\MICROSOFT VISUAL STUDIO\2017\COMMUNITY\VC\TOOLS\MSVC\14.12.25827\INCLUDE\VCRUNTIME_EXCEPTION.H
C:\PROGRAM FILES (X86)\MICROSOFT VISUAL STUDIO\2017\COMMUNITY\VC\TOOLS\MSVC\14.12.25827\INCLUDE\EH.H
C:\PROGRAM FILES (X86)\WINDOWS KITS\10\INCLUDE\10.0.16299.0\UCRT\CORECRT_TERMINATE.H
C:\PROGRAM FILES (X86)\MICROSOFT VISUAL STUDIO\2017\COMMUNITY\VC\TOOLS\MSVC\14.12.25827\INCLUDE\VCRUNTIME_NEW.H
C:\PROGRAM FILES (X86)\MICROSOFT VISUAL STUDIO\2017\COMMUNITY\VC\TOOLS\MSVC\14.12.25827\INCLUDE\XUTILITY
C:\PROGRAM FILES (X86)\MICROSOFT VISUAL STUDIO\2017\COMMUNITY\VC\TOOLS\MSVC\14.12.25827\INCLUDE\UTILITY
C:\PROGRAM FILES (X86)\MICROSOFT VISUAL STUDIO\2017\COMMUNITY\VC\TOOLS\MSVC\14.12.25827\INCLUDE\IOSFWD
C:\PROGRAM FILES (X86)\MICROSOFT VISUAL STUDIO\2017\COMMUNITY\VC\TOOLS\MSVC\14.12.25827\INCLUDE\CSTDIO
C:\PROGRAM FILES (X86)\WINDOWS KITS\10\INCLUDE\10.0.16299.0\UCRT\STDIO.H
C:\PROGRAM FILES (X86)\MICROSOFT VISUAL STUDIO\2017\COMMUNITY\VC\TOOLS\MSVC\14.12.25827\INCLUDE\CSTRING
C:\PROGRAM FILES (X86)\WINDOWS KITS\10\INCLUDE\10.0.16299.0\UCRT\STRING.H
C:\PROGRAM FILES (X86)\WINDOWS KITS\10\INCLUDE\10.0.16299.0\UCRT\CRTDBG.H
C:\PROGRAM FILES (X86)\MICROSOFT VISUAL STUDIO\2017\COMMUNITY\VC\TOOLS\MSVC\14.12.25827\INCLUDE\VCRUNTIME_NEW_DEBUG.H
C:\PROGRAM FILES (X86)\MICROSOFT VISUAL STUDIO\2017\COMMUNITY\VC\TOOLS\MSVC\14.12.25827\INCLUDE\XATOMIC0.H
C:\PROGRAM FILES (X86)\MICROSOFT VISUAL STUDIO\2017\COMMUNITY\VC\TOOLS\MSVC\14.12.25827\INCLUDE\INTRIN0.H
C:\PROGRAM FILES (X86)\MICROSOFT VISUAL STUDIO\2017\COMMUNITY\VC\TOOLS\MSVC\14.12.25827\INCLUDE\STDEXCEPT
C:\PROGRAM FILES (X86)\MICROSOFT VISUAL STUDIO\2017\COMMUNITY\VC\TOOLS\MSVC\14.12.25827\INCLUDE\XSTRING
C:\PROGRAM FILES (X86)\MICROSOFT VISUAL STUDIO\2017\COMMUNITY\VC\TOOLS\MSVC\14.12.25827\INCLUDE\STRING
C:\PROGRAM FILES (X86)\MICROSOFT VISUAL STUDIO\2017\COMMUNITY\VC\TOOLS\MSVC\14.12.25827\INCLUDE\ISTREAM
C:\PROGRAM FILES (X86)\MICROSOFT VISUAL STUDIO\2017\COMMUNITY\VC\TOOLS\MSVC\14.12.25827\INCLUDE\OSTREAM
C:\PROGRAM FILES (X86)\MICROSOFT VISUAL STUDIO\2017\COMMUNITY\VC\TOOLS\MSVC\14.12.25827\INCLUDE\IOS
C:\PROGRAM FILES (X86)\MICROSOFT VISUAL STUDIO\2017\COMMUNITY\VC\TOOLS\MSVC\14.12.25827\INCLUDE\XLOCNUM
C:\PROGRAM FILES (X86)\MICROSOFT VISUAL STUDIO\2017\COMMUNITY\VC\TOOLS\MSVC\14.12.25827\INCLUDE\STREAMBUF
C:\PROGRAM FILES (X86)\MICROSOFT VISUAL STUDIO\2017\COMMUNITY\VC\TOOLS\MSVC\14.12.25827\INCLUDE\XIOSBASE
C:\PROGRAM FILES (X86)\MICROSOFT VISUAL STUDIO\2017\COMMUNITY\VC\TOOLS\MSVC\14.12.25827\INCLUDE\XLOCALE
C:\PROGRAM FILES (X86)\MICROSOFT VISUAL STUDIO\2017\COMMUNITY\VC\TOOLS\MSVC\14.12.25827\INCLUDE\TYPEINFO
C:\PROGRAM FILES (X86)\MICROSOFT VISUAL STUDIO\2017\COMMUNITY\VC\TOOLS\MSVC\14.12.25827\INCLUDE\VCRUNTIME_TYPEINFO.H
C:\PROGRAM FILES (X86)\MICROSOFT VISUAL STUDIO\2017\COMMUNITY\VC\TOOLS\MSVC\14.12.25827\INCLUDE\XLOCINFO
C:\PROGRAM FILES (X86)\MICROSOFT VISUAL STUDIO\2017\COMMUNITY\VC\TOOLS\MSVC\14.12.25827\INCLUDE\XLOCINFO.H
C:\PROGRAM FILES (X86)\WINDOWS KITS\10\INCLUDE\10.0.16299.0\UCRT\CTYPE.H
C:\PROGRAM FILES (X86)\WINDOWS KITS\10\INCLUDE\10.0.16299.0\UCRT\LOCALE.H
C:\PROGRAM FILES (X86)\MICROSOFT VISUAL STUDIO\2017\COMMUNITY\VC\TOOLS\MSVC\14.12.25827\INCLUDE\XFACET
C:\PROGRAM FILES (X86)\MICROSOFT VISUAL STUDIO\2017\COMMUNITY\VC\TOOLS\MSVC\14.12.25827\INCLUDE\SYSTEM_ERROR
C:\PROGRAM FILES (X86)\MICROSOFT VISUAL STUDIO\2017\COMMUNITY\VC\TOOLS\MSVC\14.12.25827\INCLUDE\CERRNO
C:\PROGRAM FILES (X86)\MICROSOFT VISUAL STUDIO\2017\COMMUNITY\VC\TOOLS\MSVC\14.12.25827\INCLUDE\XCALL_ONCE.H
C:\PROGRAM FILES (X86)\WINDOWS KITS\10\INCLUDE\10.0.16299.0\UCRT\SHARE.H
C:\PROGRAM FILES (X86)\MICROSOFT VISUAL STUDIO\2017\COMMUNITY\VC\TOOLS\MSVC\14.12.25827\INCLUDE\XSTRING_INSERT.H
C:\PROGRAM FILES (X86)\WINDOWS KITS\10\INCLUDE\10.0.16299.0\UCRT\ASSERT.H
D:\YU\REMOVE_OUTLIER_POINTS\REMOVE_OUTLIER_POINTS\VCGLIB\WRAP\IO_TRIMESH\IO_MASK.H
D:\YU\REMOVE_OUTLIER_POINTS\REMOVE_OUTLIER_POINTS\VCGLIB\WRAP\IO_TRIMESH\IO_PLY.H
D:\YU\REMOVE_OUTLIER_POINTS\REMOVE_OUTLIER_POINTS\VCGLIB\VCG\COMPLEX\ALGORITHMS\CREATE\PLATONIC.H
D:\YU\REMOVE_OUTLIER_POINTS\REMOVE_OUTLIER_POINTS\VCGLIB\VCG\MATH\BASE.H
C:\PROGRAM FILES (X86)\MICROSOFT VISUAL STUDIO\2017\COMMUNITY\VC\TOOLS\MSVC\14.12.25827\INCLUDE\ALGORITHM
D:\YU\REMOVE_OUTLIER_POINTS\REMOVE_OUTLIER_POINTS\VCGLIB\VCG\COMPLEX\ALGORITHMS\REFINE.H
C:\PROGRAM FILES (X86)\MICROSOFT VISUAL STUDIO\2017\COMMUNITY\VC\TOOLS\MSVC\14.12.25827\INCLUDE\FUNCTIONAL
C:\PROGRAM FILES (X86)\MICROSOFT VISUAL STUDIO\2017\COMMUNITY\VC\TOOLS\MSVC\14.12.25827\INCLUDE\TUPLE
C:\PROGRAM FILES (X86)\MICROSOFT VISUAL STUDIO\2017\COMMUNITY\VC\TOOLS\MSVC\14.12.25827\INCLUDE\XFUNCTIONAL
C:\PROGRAM FILES (X86)\MICROSOFT VISUAL STUDIO\2017\COMMUNITY\VC\TOOLS\MSVC\14.12.25827\INCLUDE\MAP
C:\PROGRAM FILES (X86)\MICROSOFT VISUAL STUDIO\2017\COMMUNITY\VC\TOOLS\MSVC\14.12.25827\INCLUDE\XTREE
D:\YU\REMOVE_OUTLIER_POINTS\REMOVE_OUTLIER_POINTS\VCGLIB\VCG\SPACE\SPHERE3.H
D:\YU\REMOVE_OUTLIER_POINTS\REMOVE_OUTLIER_POINTS\VCGLIB\VCG\SPACE\POINT3.H
D:\YU\REMOVE_OUTLIER_POINTS\REMOVE_OUTLIER_POINTS\VCGLIB\VCG\SPACE\DEPRECATED_POINT3.H
D:\YU\REMOVE_OUTLIER_POINTS\REMOVE_OUTLIER_POINTS\VCGLIB\VCG\SPACE\PLANE3.H
D:\YU\REMOVE_OUTLIER_POINTS\REMOVE_OUTLIER_POINTS\VCGLIB\VCG\SIMPLEX\FACE\POS.H
D:\YU\REMOVE_OUTLIER_POINTS\REMOVE_OUTLIER_POINTS\VCGLIB\VCG\SIMPLEX\FACE\TOPOLOGY.H
C:\PROGRAM FILES (X86)\MICROSOFT VISUAL STUDIO\2017\COMMUNITY\VC\TOOLS\MSVC\14.12.25827\INCLUDE\SET
D:\YU\REMOVE_OUTLIER_POINTS\REMOVE_OUTLIER_POINTS\VCGLIB\VCG\COMPLEX\ALGORITHMS\UPDATE\TOPOLOGY.H
D:\YU\REMOVE_OUTLIER_POINTS\REMOVE_OUTLIER_POINTS\VCGLIB\VCG\COMPLEX\ALGORITHMS\UPDATE\FLAG.H
D:\YU\REMOVE_OUTLIER_POINTS\REMOVE_OUTLIER_POINTS\VCGLIB\VCG\COMPLEX\ALGORITHMS\CLEAN.H
D:\YU\REMOVE_OUTLIER_POINTS\REMOVE_OUTLIER_POINTS\VCGLIB\VCG\COMPLEX\COMPLEX.H
C:\PROGRAM FILES (X86)\MICROSOFT VISUAL STUDIO\2017\COMMUNITY\VC\TOOLS\MSVC\14.12.25827\INCLUDE\STACK
C:\PROGRAM FILES (X86)\MICROSOFT VISUAL STUDIO\2017\COMMUNITY\VC\TOOLS\MSVC\14.12.25827\INCLUDE\DEQUE
C:\PROGRAM FILES (X86)\MICROSOFT VISUAL STUDIO\2017\COMMUNITY\VC\TOOLS\MSVC\14.12.25827\INCLUDE\IOSTREAM
D:\YU\REMOVE_OUTLIER_POINTS\REMOVE_OUTLIER_POINTS\VCGLIB\VCG\COMPLEX\EXCEPTION.H
D:\YU\REMOVE_OUTLIER_POINTS\REMOVE_OUTLIER_POINTS\VCGLIB\VCG\CONTAINER\SIMPLE_TEMPORARY_DATA.H
D:\YU\REMOVE_OUTLIER_POINTS\REMOVE_OUTLIER_POINTS\VCGLIB\VCG\COMPLEX\USED_TYPES.H
D:\YU\REMOVE_OUTLIER_POINTS\REMOVE_OUTLIER_POINTS\VCGLIB\VCG\SPACE\BOX3.H
D:\YU\REMOVE_OUTLIER_POINTS\REMOVE_OUTLIER_POINTS\VCGLIB\VCG\MATH\MATRIX44.H
D:\YU\REMOVE_OUTLIER_POINTS\REMOVE_OUTLIER_POINTS\VCGLIB\VCG\SPACE\POINT4.H
D:\YU\REMOVE_OUTLIER_POINTS\REMOVE_OUTLIER_POINTS\VCGLIB\VCG\SPACE\DEPRECATED_POINT4.H
D:\YU\REMOVE_OUTLIER_POINTS\REMOVE_OUTLIER_POINTS\VCGLIB\EIGENLIB\EIGEN\CORE
D:\YU\REMOVE_OUTLIER_POINTS\REMOVE_OUTLIER_POINTS\VCGLIB\EIGENLIB\EIGEN\SRC\CORE\UTIL\DISABLESTUPIDWARNINGS.H
D:\YU\REMOVE_OUTLIER_POINTS\REMOVE_OUTLIER_POINTS\VCGLIB\EIGENLIB\EIGEN\SRC\CORE\UTIL\MACROS.H
C:\PROGRAM FILES (X86)\MICROSOFT VISUAL STUDIO\2017\COMMUNITY\VC\TOOLS\MSVC\14.12.25827\INCLUDE\COMPLEX
C:\PROGRAM FILES (X86)\MICROSOFT VISUAL STUDIO\2017\COMMUNITY\VC\TOOLS\MSVC\14.12.25827\INCLUDE\SSTREAM
C:\PROGRAM FILES (X86)\MICROSOFT VISUAL STUDIO\2017\COMMUNITY\VC\TOOLS\MSVC\14.12.25827\INCLUDE\XCOMPLEX
D:\YU\REMOVE_OUTLIER_POINTS\REMOVE_OUTLIER_POINTS\VCGLIB\EIGENLIB\EIGEN\SRC\CORE\UTIL\MKL_SUPPORT.H
C:\PROGRAM FILES (X86)\MICROSOFT VISUAL STUDIO\2017\COMMUNITY\VC\TOOLS\MSVC\14.12.25827\INCLUDE\EMMINTRIN.H
C:\PROGRAM FILES (X86)\MICROSOFT VISUAL STUDIO\2017\COMMUNITY\VC\TOOLS\MSVC\14.12.25827\INCLUDE\XMMINTRIN.H
C:\PROGRAM FILES (X86)\MICROSOFT VISUAL STUDIO\2017\COMMUNITY\VC\TOOLS\MSVC\14.12.25827\INCLUDE\MMINTRIN.H
C:\PROGRAM FILES (X86)\MICROSOFT VISUAL STUDIO\2017\COMMUNITY\VC\TOOLS\MSVC\14.12.25827\INCLUDE\CASSERT
C:\PROGRAM FILES (X86)\MICROSOFT VISUAL STUDIO\2017\COMMUNITY\VC\TOOLS\MSVC\14.12.25827\INCLUDE\INTRIN.H
C:\PROGRAM FILES (X86)\MICROSOFT VISUAL STUDIO\2017\COMMUNITY\VC\TOOLS\MSVC\14.12.25827\INCLUDE\SETJMP.H
C:\PROGRAM FILES (X86)\MICROSOFT VISUAL STUDIO\2017\COMMUNITY\VC\TOOLS\MSVC\14.12.25827\INCLUDE\IMMINTRIN.H
C:\PROGRAM FILES (X86)\MICROSOFT VISUAL STUDIO\2017\COMMUNITY\VC\TOOLS\MSVC\14.12.25827\INCLUDE\WMMINTRIN.H
C:\PROGRAM FILES (X86)\MICROSOFT VISUAL STUDIO\2017\COMMUNITY\VC\TOOLS\MSVC\14.12.25827\INCLUDE\NMMINTRIN.H
C:\PROGRAM FILES (X86)\MICROSOFT VISUAL STUDIO\2017\COMMUNITY\VC\TOOLS\MSVC\14.12.25827\INCLUDE\SMMINTRIN.H
C:\PROGRAM FILES (X86)\MICROSOFT VISUAL STUDIO\2017\COMMUNITY\VC\TOOLS\MSVC\14.12.25827\INCLUDE\TMMINTRIN.H
C:\PROGRAM FILES (X86)\MICROSOFT VISUAL STUDIO\2017\COMMUNITY\VC\TOOLS\MSVC\14.12.25827\INCLUDE\PMMINTRIN.H
C:\PROGRAM FILES (X86)\MICROSOFT VISUAL STUDIO\2017\COMMUNITY\VC\TOOLS\MSVC\14.12.25827\INCLUDE\ZMMINTRIN.H
C:\PROGRAM FILES (X86)\MICROSOFT VISUAL STUDIO\2017\COMMUNITY\VC\TOOLS\MSVC\14.12.25827\INCLUDE\AMMINTRIN.H
D:\YU\REMOVE_OUTLIER_POINTS\REMOVE_OUTLIER_POINTS\VCGLIB\EIGENLIB\EIGEN\SRC\CORE\UTIL\CONSTANTS.H
D:\YU\REMOVE_OUTLIER_POINTS\REMOVE_OUTLIER_POINTS\VCGLIB\EIGENLIB\EIGEN\SRC\CORE\UTIL\FORWARDDECLARATIONS.H
D:\YU\REMOVE_OUTLIER_POINTS\REMOVE_OUTLIER_POINTS\VCGLIB\EIGENLIB\EIGEN\SRC\CORE\UTIL\META.H
D:\YU\REMOVE_OUTLIER_POINTS\REMOVE_OUTLIER_POINTS\VCGLIB\EIGENLIB\EIGEN\SRC\CORE\UTIL\STATICASSERT.H
D:\YU\REMOVE_OUTLIER_POINTS\REMOVE_OUTLIER_POINTS\VCGLIB\EIGENLIB\EIGEN\SRC\CORE\UTIL\XPRHELPER.H
D:\YU\REMOVE_OUTLIER_POINTS\REMOVE_OUTLIER_POINTS\VCGLIB\EIGENLIB\EIGEN\SRC\CORE\UTIL\MEMORY.H
D:\YU\REMOVE_OUTLIER_POINTS\REMOVE_OUTLIER_POINTS\VCGLIB\EIGENLIB\EIGEN\SRC\CORE\NUMTRAITS.H
D:\YU\REMOVE_OUTLIER_POINTS\REMOVE_OUTLIER_POINTS\VCGLIB\EIGENLIB\EIGEN\SRC\CORE\MATHFUNCTIONS.H
D:\YU\REMOVE_OUTLIER_POINTS\REMOVE_OUTLIER_POINTS\VCGLIB\EIGENLIB\EIGEN\SRC\CORE\GENERICPACKETMATH.H
D:\YU\REMOVE_OUTLIER_POINTS\REMOVE_OUTLIER_POINTS\VCGLIB\EIGENLIB\EIGEN\SRC\CORE\ARCH\SSE\PACKETMATH.H
D:\YU\REMOVE_OUTLIER_POINTS\REMOVE_OUTLIER_POINTS\VCGLIB\EIGENLIB\EIGEN\SRC\CORE\ARCH\SSE\MATHFUNCTIONS.H
D:\YU\REMOVE_OUTLIER_POINTS\REMOVE_OUTLIER_POINTS\VCGLIB\EIGENLIB\EIGEN\SRC\CORE\ARCH\SSE\COMPLEX.H
D:\YU\REMOVE_OUTLIER_POINTS\REMOVE_OUTLIER_POINTS\VCGLIB\EIGENLIB\EIGEN\SRC\CORE\ARCH\DEFAULT\SETTINGS.H
D:\YU\REMOVE_OUTLIER_POINTS\REMOVE_OUTLIER_POINTS\VCGLIB\EIGENLIB\EIGEN\SRC\CORE\FUNCTORS.H
D:\YU\REMOVE_OUTLIER_POINTS\REMOVE_OUTLIER_POINTS\VCGLIB\EIGENLIB\EIGEN\SRC\CORE\DENSECOEFFSBASE.H
D:\YU\REMOVE_OUTLIER_POINTS\REMOVE_OUTLIER_POINTS\VCGLIB\EIGENLIB\EIGEN\SRC\CORE\DENSEBASE.H
D:\YU\REMOVE_OUTLIER_POINTS\REMOVE_OUTLIER_POINTS\VCGLIB\EIGENLIB\EIGEN\SRC\PLUGINS\BLOCKMETHODS.H
D:\YU\REMOVE_OUTLIER_POINTS\REMOVE_OUTLIER_POINTS\VCGLIB\EIGENLIB\EIGEN\SRC\CORE\MATRIXBASE.H
D:\YU\REMOVE_OUTLIER_POINTS\REMOVE_OUTLIER_POINTS\VCGLIB\EIGENLIB\EIGEN\SRC\PLUGINS\COMMONCWISEUNARYOPS.H
D:\YU\REMOVE_OUTLIER_POINTS\REMOVE_OUTLIER_POINTS\VCGLIB\EIGENLIB\EIGEN\SRC\PLUGINS\COMMONCWISEBINARYOPS.H
D:\YU\REMOVE_OUTLIER_POINTS\REMOVE_OUTLIER_POINTS\VCGLIB\EIGENLIB\EIGEN\SRC\PLUGINS\MATRIXCWISEUNARYOPS.H
D:\YU\REMOVE_OUTLIER_POINTS\REMOVE_OUTLIER_POINTS\VCGLIB\EIGENLIB\EIGEN\SRC\PLUGINS\MATRIXCWISEBINARYOPS.H
D:\YU\REMOVE_OUTLIER_POINTS\REMOVE_OUTLIER_POINTS\VCGLIB\EIGENLIB\EIGEN\SRC\CORE\EIGENBASE.H
D:\YU\REMOVE_OUTLIER_POINTS\REMOVE_OUTLIER_POINTS\VCGLIB\EIGENLIB\EIGEN\SRC\CORE\ASSIGN.H
D:\YU\REMOVE_OUTLIER_POINTS\REMOVE_OUTLIER_POINTS\VCGLIB\EIGENLIB\EIGEN\SRC\CORE\UTIL\BLASUTIL.H
D:\YU\REMOVE_OUTLIER_POINTS\REMOVE_OUTLIER_POINTS\VCGLIB\EIGENLIB\EIGEN\SRC\CORE\DENSESTORAGE.H
D:\YU\REMOVE_OUTLIER_POINTS\REMOVE_OUTLIER_POINTS\VCGLIB\EIGENLIB\EIGEN\SRC\CORE\NESTBYVALUE.H
D:\YU\REMOVE_OUTLIER_POINTS\REMOVE_OUTLIER_POINTS\VCGLIB\EIGENLIB\EIGEN\SRC\CORE\FORCEALIGNEDACCESS.H
D:\YU\REMOVE_OUTLIER_POINTS\REMOVE_OUTLIER_POINTS\VCGLIB\EIGENLIB\EIGEN\SRC\CORE\RETURNBYVALUE.H
D:\YU\REMOVE_OUTLIER_POINTS\REMOVE_OUTLIER_POINTS\VCGLIB\EIGENLIB\EIGEN\SRC\CORE\NOALIAS.H
D:\YU\REMOVE_OUTLIER_POINTS\REMOVE_OUTLIER_POINTS\VCGLIB\EIGENLIB\EIGEN\SRC\CORE\PLAINOBJECTBASE.H
D:\YU\REMOVE_OUTLIER_POINTS\REMOVE_OUTLIER_POINTS\VCGLIB\EIGENLIB\EIGEN\SRC\CORE\MATRIX.H
D:\YU\REMOVE_OUTLIER_POINTS\REMOVE_OUTLIER_POINTS\VCGLIB\EIGENLIB\EIGEN\SRC\CORE\ARRAY.H
D:\YU\REMOVE_OUTLIER_POINTS\REMOVE_OUTLIER_POINTS\VCGLIB\EIGENLIB\EIGEN\SRC\CORE\CWISEBINARYOP.H
D:\YU\REMOVE_OUTLIER_POINTS\REMOVE_OUTLIER_POINTS\VCGLIB\EIGENLIB\EIGEN\SRC\CORE\CWISEUNARYOP.H
D:\YU\REMOVE_OUTLIER_POINTS\REMOVE_OUTLIER_POINTS\VCGLIB\EIGENLIB\EIGEN\SRC\CORE\CWISENULLARYOP.H
D:\YU\REMOVE_OUTLIER_POINTS\REMOVE_OUTLIER_POINTS\VCGLIB\EIGENLIB\EIGEN\SRC\CORE\CWISEUNARYVIEW.H
D:\YU\REMOVE_OUTLIER_POINTS\REMOVE_OUTLIER_POINTS\VCGLIB\EIGENLIB\EIGEN\SRC\CORE\SELFCWISEBINARYOP.H
D:\YU\REMOVE_OUTLIER_POINTS\REMOVE_OUTLIER_POINTS\VCGLIB\EIGENLIB\EIGEN\SRC\CORE\DOT.H
D:\YU\REMOVE_OUTLIER_POINTS\REMOVE_OUTLIER_POINTS\VCGLIB\EIGENLIB\EIGEN\SRC\CORE\STABLENORM.H
D:\YU\REMOVE_OUTLIER_POINTS\REMOVE_OUTLIER_POINTS\VCGLIB\EIGENLIB\EIGEN\SRC\CORE\MAPBASE.H
D:\YU\REMOVE_OUTLIER_POINTS\REMOVE_OUTLIER_POINTS\VCGLIB\EIGENLIB\EIGEN\SRC\CORE\STRIDE.H
D:\YU\REMOVE_OUTLIER_POINTS\REMOVE_OUTLIER_POINTS\VCGLIB\EIGENLIB\EIGEN\SRC\CORE\MAP.H
D:\YU\REMOVE_OUTLIER_POINTS\REMOVE_OUTLIER_POINTS\VCGLIB\EIGENLIB\EIGEN\SRC\CORE\BLOCK.H
D:\YU\REMOVE_OUTLIER_POINTS\REMOVE_OUTLIER_POINTS\VCGLIB\EIGENLIB\EIGEN\SRC\CORE\VECTORBLOCK.H
D:\YU\REMOVE_OUTLIER_POINTS\REMOVE_OUTLIER_POINTS\VCGLIB\EIGENLIB\EIGEN\SRC\CORE\REF.H
D:\YU\REMOVE_OUTLIER_POINTS\REMOVE_OUTLIER_POINTS\VCGLIB\EIGENLIB\EIGEN\SRC\CORE\TRANSPOSE.H
D:\YU\REMOVE_OUTLIER_POINTS\REMOVE_OUTLIER_POINTS\VCGLIB\EIGENLIB\EIGEN\SRC\CORE\DIAGONALMATRIX.H
D:\YU\REMOVE_OUTLIER_POINTS\REMOVE_OUTLIER_POINTS\VCGLIB\EIGENLIB\EIGEN\SRC\CORE\DIAGONAL.H
D:\YU\REMOVE_OUTLIER_POINTS\REMOVE_OUTLIER_POINTS\VCGLIB\EIGENLIB\EIGEN\SRC\CORE\DIAGONALPRODUCT.H
D:\YU\REMOVE_OUTLIER_POINTS\REMOVE_OUTLIER_POINTS\VCGLIB\EIGENLIB\EIGEN\SRC\CORE\PERMUTATIONMATRIX.H
D:\YU\REMOVE_OUTLIER_POINTS\REMOVE_OUTLIER_POINTS\VCGLIB\EIGENLIB\EIGEN\SRC\CORE\TRANSPOSITIONS.H
D:\YU\REMOVE_OUTLIER_POINTS\REMOVE_OUTLIER_POINTS\VCGLIB\EIGENLIB\EIGEN\SRC\CORE\REDUX.H
D:\YU\REMOVE_OUTLIER_POINTS\REMOVE_OUTLIER_POINTS\VCGLIB\EIGENLIB\EIGEN\SRC\CORE\VISITOR.H
D:\YU\REMOVE_OUTLIER_POINTS\REMOVE_OUTLIER_POINTS\VCGLIB\EIGENLIB\EIGEN\SRC\CORE\FUZZY.H
D:\YU\REMOVE_OUTLIER_POINTS\REMOVE_OUTLIER_POINTS\VCGLIB\EIGENLIB\EIGEN\SRC\CORE\IO.H
D:\YU\REMOVE_OUTLIER_POINTS\REMOVE_OUTLIER_POINTS\VCGLIB\EIGENLIB\EIGEN\SRC\CORE\SWAP.H
D:\YU\REMOVE_OUTLIER_POINTS\REMOVE_OUTLIER_POINTS\VCGLIB\EIGENLIB\EIGEN\SRC\CORE\COMMAINITIALIZER.H
D:\YU\REMOVE_OUTLIER_POINTS\REMOVE_OUTLIER_POINTS\VCGLIB\EIGENLIB\EIGEN\SRC\CORE\FLAGGED.H
D:\YU\REMOVE_OUTLIER_POINTS\REMOVE_OUTLIER_POINTS\VCGLIB\EIGENLIB\EIGEN\SRC\CORE\PRODUCTBASE.H
D:\YU\REMOVE_OUTLIER_POINTS\REMOVE_OUTLIER_POINTS\VCGLIB\EIGENLIB\EIGEN\SRC\CORE\GENERALPRODUCT.H
D:\YU\REMOVE_OUTLIER_POINTS\REMOVE_OUTLIER_POINTS\VCGLIB\EIGENLIB\EIGEN\SRC\CORE\TRIANGULARMATRIX.H
D:\YU\REMOVE_OUTLIER_POINTS\REMOVE_OUTLIER_POINTS\VCGLIB\EIGENLIB\EIGEN\SRC\CORE\SELFADJOINTVIEW.H
D:\YU\REMOVE_OUTLIER_POINTS\REMOVE_OUTLIER_POINTS\VCGLIB\EIGENLIB\EIGEN\SRC\CORE\PRODUCTS\GENERALBLOCKPANELKERNEL.H
D:\YU\REMOVE_OUTLIER_POINTS\REMOVE_OUTLIER_POINTS\VCGLIB\EIGENLIB\EIGEN\SRC\CORE\PRODUCTS\PARALLELIZER.H
D:\YU\REMOVE_OUTLIER_POINTS\REMOVE_OUTLIER_POINTS\VCGLIB\EIGENLIB\EIGEN\SRC\CORE\PRODUCTS\COEFFBASEDPRODUCT.H
D:\YU\REMOVE_OUTLIER_POINTS\REMOVE_OUTLIER_POINTS\VCGLIB\EIGENLIB\EIGEN\SRC\CORE\PRODUCTS\GENERALMATRIXVECTOR.H
D:\YU\REMOVE_OUTLIER_POINTS\REMOVE_OUTLIER_POINTS\VCGLIB\EIGENLIB\EIGEN\SRC\CORE\PRODUCTS\GENERALMATRIXMATRIX.H
D:\YU\REMOVE_OUTLIER_POINTS\REMOVE_OUTLIER_POINTS\VCGLIB\EIGENLIB\EIGEN\SRC\CORE\SOLVETRIANGULAR.H
D:\YU\REMOVE_OUTLIER_POINTS\REMOVE_OUTLIER_POINTS\VCGLIB\EIGENLIB\EIGEN\SRC\CORE\PRODUCTS\GENERALMATRIXMATRIXTRIANGULAR.H
D:\YU\REMOVE_OUTLIER_POINTS\REMOVE_OUTLIER_POINTS\VCGLIB\EIGENLIB\EIGEN\SRC\CORE\PRODUCTS\SELFADJOINTMATRIXVECTOR.H
D:\YU\REMOVE_OUTLIER_POINTS\REMOVE_OUTLIER_POINTS\VCGLIB\EIGENLIB\EIGEN\SRC\CORE\PRODUCTS\SELFADJOINTMATRIXMATRIX.H
D:\YU\REMOVE_OUTLIER_POINTS\REMOVE_OUTLIER_POINTS\VCGLIB\EIGENLIB\EIGEN\SRC\CORE\PRODUCTS\SELFADJOINTPRODUCT.H
D:\YU\REMOVE_OUTLIER_POINTS\REMOVE_OUTLIER_POINTS\VCGLIB\EIGENLIB\EIGEN\SRC\CORE\PRODUCTS\SELFADJOINTRANK2UPDATE.H
D:\YU\REMOVE_OUTLIER_POINTS\REMOVE_OUTLIER_POINTS\VCGLIB\EIGENLIB\EIGEN\SRC\CORE\PRODUCTS\TRIANGULARMATRIXVECTOR.H
D:\YU\REMOVE_OUTLIER_POINTS\REMOVE_OUTLIER_POINTS\VCGLIB\EIGENLIB\EIGEN\SRC\CORE\PRODUCTS\TRIANGULARMATRIXMATRIX.H
D:\YU\REMOVE_OUTLIER_POINTS\REMOVE_OUTLIER_POINTS\VCGLIB\EIGENLIB\EIGEN\SRC\CORE\PRODUCTS\TRIANGULARSOLVERMATRIX.H
D:\YU\REMOVE_OUTLIER_POINTS\REMOVE_OUTLIER_POINTS\VCGLIB\EIGENLIB\EIGEN\SRC\CORE\PRODUCTS\TRIANGULARSOLVERVECTOR.H
D:\YU\REMOVE_OUTLIER_POINTS\REMOVE_OUTLIER_POINTS\VCGLIB\EIGENLIB\EIGEN\SRC\CORE\BANDMATRIX.H
D:\YU\REMOVE_OUTLIER_POINTS\REMOVE_OUTLIER_POINTS\VCGLIB\EIGENLIB\EIGEN\SRC\CORE\COREITERATORS.H
D:\YU\REMOVE_OUTLIER_POINTS\REMOVE_OUTLIER_POINTS\VCGLIB\EIGENLIB\EIGEN\SRC\CORE\BOOLEANREDUX.H
D:\YU\REMOVE_OUTLIER_POINTS\REMOVE_OUTLIER_POINTS\VCGLIB\EIGENLIB\EIGEN\SRC\CORE\SELECT.H
D:\YU\REMOVE_OUTLIER_POINTS\REMOVE_OUTLIER_POINTS\VCGLIB\EIGENLIB\EIGEN\SRC\CORE\VECTORWISEOP.H
D:\YU\REMOVE_OUTLIER_POINTS\REMOVE_OUTLIER_POINTS\VCGLIB\EIGENLIB\EIGEN\SRC\CORE\RANDOM.H
D:\YU\REMOVE_OUTLIER_POINTS\REMOVE_OUTLIER_POINTS\VCGLIB\EIGENLIB\EIGEN\SRC\CORE\REPLICATE.H
D:\YU\REMOVE_OUTLIER_POINTS\REMOVE_OUTLIER_POINTS\VCGLIB\EIGENLIB\EIGEN\SRC\CORE\REVERSE.H
D:\YU\REMOVE_OUTLIER_POINTS\REMOVE_OUTLIER_POINTS\VCGLIB\EIGENLIB\EIGEN\SRC\CORE\ARRAYBASE.H
D:\YU\REMOVE_OUTLIER_POINTS\REMOVE_OUTLIER_POINTS\VCGLIB\EIGENLIB\EIGEN\SRC\PLUGINS\ARRAYCWISEUNARYOPS.H
D:\YU\REMOVE_OUTLIER_POINTS\REMOVE_OUTLIER_POINTS\VCGLIB\EIGENLIB\EIGEN\SRC\PLUGINS\ARRAYCWISEBINARYOPS.H
D:\YU\REMOVE_OUTLIER_POINTS\REMOVE_OUTLIER_POINTS\VCGLIB\EIGENLIB\EIGEN\SRC\CORE\ARRAYWRAPPER.H
D:\YU\REMOVE_OUTLIER_POINTS\REMOVE_OUTLIER_POINTS\VCGLIB\EIGENLIB\EIGEN\SRC\CORE\GLOBALFUNCTIONS.H
D:\YU\REMOVE_OUTLIER_POINTS\REMOVE_OUTLIER_POINTS\VCGLIB\EIGENLIB\EIGEN\SRC\CORE\UTIL\REENABLESTUPIDWARNINGS.H
D:\YU\REMOVE_OUTLIER_POINTS\REMOVE_OUTLIER_POINTS\VCGLIB\EIGENLIB\EIGEN\LU
D:\YU\REMOVE_OUTLIER_POINTS\REMOVE_OUTLIER_POINTS\VCGLIB\EIGENLIB\EIGEN\SRC\MISC\SOLVE.H
D:\YU\REMOVE_OUTLIER_POINTS\REMOVE_OUTLIER_POINTS\VCGLIB\EIGENLIB\EIGEN\SRC\MISC\KERNEL.H
D:\YU\REMOVE_OUTLIER_POINTS\REMOVE_OUTLIER_POINTS\VCGLIB\EIGENLIB\EIGEN\SRC\MISC\IMAGE.H
D:\YU\REMOVE_OUTLIER_POINTS\REMOVE_OUTLIER_POINTS\VCGLIB\EIGENLIB\EIGEN\SRC\LU\FULLPIVLU.H
D:\YU\REMOVE_OUTLIER_POINTS\REMOVE_OUTLIER_POINTS\VCGLIB\EIGENLIB\EIGEN\SRC\LU\PARTIALPIVLU.H
D:\YU\REMOVE_OUTLIER_POINTS\REMOVE_OUTLIER_POINTS\VCGLIB\EIGENLIB\EIGEN\SRC\LU\DETERMINANT.H
D:\YU\REMOVE_OUTLIER_POINTS\REMOVE_OUTLIER_POINTS\VCGLIB\EIGENLIB\EIGEN\SRC\LU\INVERSE.H
D:\YU\REMOVE_OUTLIER_POINTS\REMOVE_OUTLIER_POINTS\VCGLIB\EIGENLIB\EIGEN\SRC\LU\ARCH\INVERSE_SSE.H
D:\YU\REMOVE_OUTLIER_POINTS\REMOVE_OUTLIER_POINTS\VCGLIB\VCG\SPACE\LINE3.H
D:\YU\REMOVE_OUTLIER_POINTS\REMOVE_OUTLIER_POINTS\VCGLIB\VCG\SPACE\COLOR4.H
D:\YU\REMOVE_OUTLIER_POINTS\REMOVE_OUTLIER_POINTS\VCGLIB\VCG\MATH\SHOT.H
D:\YU\REMOVE_OUTLIER_POINTS\REMOVE_OUTLIER_POINTS\VCGLIB\VCG\SPACE\POINT2.H
D:\YU\REMOVE_OUTLIER_POINTS\REMOVE_OUTLIER_POINTS\VCGLIB\VCG\SPACE\DEPRECATED_POINT2.H
D:\YU\REMOVE_OUTLIER_POINTS\REMOVE_OUTLIER_POINTS\VCGLIB\VCG\MATH\SIMILARITY.H
D:\YU\REMOVE_OUTLIER_POINTS\REMOVE_OUTLIER_POINTS\VCGLIB\VCG\MATH\QUATERNION.H
D:\YU\REMOVE_OUTLIER_POINTS\REMOVE_OUTLIER_POINTS\VCGLIB\VCG\MATH\MATRIX33.H
D:\YU\REMOVE_OUTLIER_POINTS\REMOVE_OUTLIER_POINTS\VCGLIB\VCG\MATH\CAMERA.H
D:\YU\REMOVE_OUTLIER_POINTS\REMOVE_OUTLIER_POINTS\VCGLIB\VCG\SPACE\TEXCOORD2.H
D:\YU\REMOVE_OUTLIER_POINTS\REMOVE_OUTLIER_POINTS\VCGLIB\VCG\SPACE\TRIANGLE3.H
D:\YU\REMOVE_OUTLIER_POINTS\REMOVE_OUTLIER_POINTS\VCGLIB\VCG\SPACE\SEGMENT3.H
D:\YU\REMOVE_OUTLIER_POINTS\REMOVE_OUTLIER_POINTS\VCGLIB\VCG\SPACE\TRIANGLE2.H
D:\YU\REMOVE_OUTLIER_POINTS\REMOVE_OUTLIER_POINTS\VCGLIB\VCG\SPACE\SEGMENT2.H
D:\YU\REMOVE_OUTLIER_POINTS\REMOVE_OUTLIER_POINTS\VCGLIB\VCG\SPACE\LINE2.H
D:\YU\REMOVE_OUTLIER_POINTS\REMOVE_OUTLIER_POINTS\VCGLIB\VCG\SPACE\BOX2.H
D:\YU\REMOVE_OUTLIER_POINTS\REMOVE_OUTLIER_POINTS\VCGLIB\VCG\SPACE\POLYGON3.H
D:\YU\REMOVE_OUTLIER_POINTS\REMOVE_OUTLIER_POINTS\VCGLIB\VCG\SPACE\FITTING3.H
D:\YU\REMOVE_OUTLIER_POINTS\REMOVE_OUTLIER_POINTS\VCGLIB\EIGENLIB\EIGEN\EIGENVALUES
D:\YU\REMOVE_OUTLIER_POINTS\REMOVE_OUTLIER_POINTS\VCGLIB\EIGENLIB\EIGEN\CHOLESKY
D:\YU\REMOVE_OUTLIER_POINTS\REMOVE_OUTLIER_POINTS\VCGLIB\EIGENLIB\EIGEN\SRC\CHOLESKY\LLT.H
D:\YU\REMOVE_OUTLIER_POINTS\REMOVE_OUTLIER_POINTS\VCGLIB\EIGENLIB\EIGEN\SRC\CHOLESKY\LDLT.H
D:\YU\REMOVE_OUTLIER_POINTS\REMOVE_OUTLIER_POINTS\VCGLIB\EIGENLIB\EIGEN\JACOBI
D:\YU\REMOVE_OUTLIER_POINTS\REMOVE_OUTLIER_POINTS\VCGLIB\EIGENLIB\EIGEN\SRC\JACOBI\JACOBI.H
D:\YU\REMOVE_OUTLIER_POINTS\REMOVE_OUTLIER_POINTS\VCGLIB\EIGENLIB\EIGEN\HOUSEHOLDER
D:\YU\REMOVE_OUTLIER_POINTS\REMOVE_OUTLIER_POINTS\VCGLIB\EIGENLIB\EIGEN\SRC\HOUSEHOLDER\HOUSEHOLDER.H
D:\YU\REMOVE_OUTLIER_POINTS\REMOVE_OUTLIER_POINTS\VCGLIB\EIGENLIB\EIGEN\SRC\HOUSEHOLDER\HOUSEHOLDERSEQUENCE.H
D:\YU\REMOVE_OUTLIER_POINTS\REMOVE_OUTLIER_POINTS\VCGLIB\EIGENLIB\EIGEN\SRC\HOUSEHOLDER\BLOCKHOUSEHOLDER.H
D:\YU\REMOVE_OUTLIER_POINTS\REMOVE_OUTLIER_POINTS\VCGLIB\EIGENLIB\EIGEN\GEOMETRY
D:\YU\REMOVE_OUTLIER_POINTS\REMOVE_OUTLIER_POINTS\VCGLIB\EIGENLIB\EIGEN\SVD
D:\YU\REMOVE_OUTLIER_POINTS\REMOVE_OUTLIER_POINTS\VCGLIB\EIGENLIB\EIGEN\QR
D:\YU\REMOVE_OUTLIER_POINTS\REMOVE_OUTLIER_POINTS\VCGLIB\EIGENLIB\EIGEN\SRC\QR\HOUSEHOLDERQR.H
D:\YU\REMOVE_OUTLIER_POINTS\REMOVE_OUTLIER_POINTS\VCGLIB\EIGENLIB\EIGEN\SRC\QR\FULLPIVHOUSEHOLDERQR.H
D:\YU\REMOVE_OUTLIER_POINTS\REMOVE_OUTLIER_POINTS\VCGLIB\EIGENLIB\EIGEN\SRC\QR\COLPIVHOUSEHOLDERQR.H
D:\YU\REMOVE_OUTLIER_POINTS\REMOVE_OUTLIER_POINTS\VCGLIB\EIGENLIB\EIGEN\SRC\SVD\JACOBISVD.H
D:\YU\REMOVE_OUTLIER_POINTS\REMOVE_OUTLIER_POINTS\VCGLIB\EIGENLIB\EIGEN\SRC\SVD\UPPERBIDIAGONALIZATION.H
D:\YU\REMOVE_OUTLIER_POINTS\REMOVE_OUTLIER_POINTS\VCGLIB\EIGENLIB\EIGEN\SRC\GEOMETRY\ORTHOMETHODS.H
D:\YU\REMOVE_OUTLIER_POINTS\REMOVE_OUTLIER_POINTS\VCGLIB\EIGENLIB\EIGEN\SRC\GEOMETRY\EULERANGLES.H
D:\YU\REMOVE_OUTLIER_POINTS\REMOVE_OUTLIER_POINTS\VCGLIB\EIGENLIB\EIGEN\SRC\GEOMETRY\HOMOGENEOUS.H
D:\YU\REMOVE_OUTLIER_POINTS\REMOVE_OUTLIER_POINTS\VCGLIB\EIGENLIB\EIGEN\SRC\GEOMETRY\ROTATIONBASE.H
D:\YU\REMOVE_OUTLIER_POINTS\REMOVE_OUTLIER_POINTS\VCGLIB\EIGENLIB\EIGEN\SRC\GEOMETRY\ROTATION2D.H
D:\YU\REMOVE_OUTLIER_POINTS\REMOVE_OUTLIER_POINTS\VCGLIB\EIGENLIB\EIGEN\SRC\GEOMETRY\QUATERNION.H
D:\YU\REMOVE_OUTLIER_POINTS\REMOVE_OUTLIER_POINTS\VCGLIB\EIGENLIB\EIGEN\SRC\GEOMETRY\ANGLEAXIS.H
D:\YU\REMOVE_OUTLIER_POINTS\REMOVE_OUTLIER_POINTS\VCGLIB\EIGENLIB\EIGEN\SRC\GEOMETRY\TRANSFORM.H
D:\YU\REMOVE_OUTLIER_POINTS\REMOVE_OUTLIER_POINTS\VCGLIB\EIGENLIB\EIGEN\SRC\GEOMETRY\TRANSLATION.H
D:\YU\REMOVE_OUTLIER_POINTS\REMOVE_OUTLIER_POINTS\VCGLIB\EIGENLIB\EIGEN\SRC\GEOMETRY\SCALING.H
D:\YU\REMOVE_OUTLIER_POINTS\REMOVE_OUTLIER_POINTS\VCGLIB\EIGENLIB\EIGEN\SRC\GEOMETRY\HYPERPLANE.H
D:\YU\REMOVE_OUTLIER_POINTS\REMOVE_OUTLIER_POINTS\VCGLIB\EIGENLIB\EIGEN\SRC\GEOMETRY\PARAMETRIZEDLINE.H
D:\YU\REMOVE_OUTLIER_POINTS\REMOVE_OUTLIER_POINTS\VCGLIB\EIGENLIB\EIGEN\SRC\GEOMETRY\ALIGNEDBOX.H
D:\YU\REMOVE_OUTLIER_POINTS\REMOVE_OUTLIER_POINTS\VCGLIB\EIGENLIB\EIGEN\SRC\GEOMETRY\UMEYAMA.H
D:\YU\REMOVE_OUTLIER_POINTS\REMOVE_OUTLIER_POINTS\VCGLIB\EIGENLIB\EIGEN\SRC\GEOMETRY\ARCH\GEOMETRY_SSE.H
D:\YU\REMOVE_OUTLIER_POINTS\REMOVE_OUTLIER_POINTS\VCGLIB\EIGENLIB\EIGEN\SRC\EIGENVALUES\TRIDIAGONALIZATION.H
D:\YU\REMOVE_OUTLIER_POINTS\REMOVE_OUTLIER_POINTS\VCGLIB\EIGENLIB\EIGEN\SRC\EIGENVALUES\REALSCHUR.H
D:\YU\REMOVE_OUTLIER_POINTS\REMOVE_OUTLIER_POINTS\VCGLIB\EIGENLIB\EIGEN\SRC\EIGENVALUES\HESSENBERGDECOMPOSITION.H
D:\YU\REMOVE_OUTLIER_POINTS\REMOVE_OUTLIER_POINTS\VCGLIB\EIGENLIB\EIGEN\SRC\EIGENVALUES\EIGENSOLVER.H
D:\YU\REMOVE_OUTLIER_POINTS\REMOVE_OUTLIER_POINTS\VCGLIB\EIGENLIB\EIGEN\SRC\EIGENVALUES\SELFADJOINTEIGENSOLVER.H
D:\YU\REMOVE_OUTLIER_POINTS\REMOVE_OUTLIER_POINTS\VCGLIB\EIGENLIB\EIGEN\SRC\EIGENVALUES\GENERALIZEDSELFADJOINTEIGENSOLVER.H
D:\YU\REMOVE_OUTLIER_POINTS\REMOVE_OUTLIER_POINTS\VCGLIB\EIGENLIB\EIGEN\SRC\EIGENVALUES\COMPLEXSCHUR.H
D:\YU\REMOVE_OUTLIER_POINTS\REMOVE_OUTLIER_POINTS\VCGLIB\EIGENLIB\EIGEN\SRC\EIGENVALUES\COMPLEXEIGENSOLVER.H
D:\YU\REMOVE_OUTLIER_POINTS\REMOVE_OUTLIER_POINTS\VCGLIB\EIGENLIB\EIGEN\SRC\EIGENVALUES\REALQZ.H
D:\YU\REMOVE_OUTLIER_POINTS\REMOVE_OUTLIER_POINTS\VCGLIB\EIGENLIB\EIGEN\SRC\EIGENVALUES\GENERALIZEDEIGENSOLVER.H
D:\YU\REMOVE_OUTLIER_POINTS\REMOVE_OUTLIER_POINTS\VCGLIB\EIGENLIB\EIGEN\SRC\EIGENVALUES\MATRIXBASEEIGENVALUES.H
D:\YU\REMOVE_OUTLIER_POINTS\REMOVE_OUTLIER_POINTS\VCGLIB\VCG\SPACE\POINT_MATCHING.H
D:\YU\REMOVE_OUTLIER_POINTS\REMOVE_OUTLIER_POINTS\VCGLIB\EIGENLIB\EIGEN\DENSE
D:\YU\REMOVE_OUTLIER_POINTS\REMOVE_OUTLIER_POINTS\VCGLIB\VCG\CONTAINER\DERIVATION_CHAIN.H
D:\YU\REMOVE_OUTLIER_POINTS\REMOVE_OUTLIER_POINTS\VCGLIB\VCG\COMPLEX\ALL_TYPES.H
D:\YU\REMOVE_OUTLIER_POINTS\REMOVE_OUTLIER_POINTS\VCGLIB\VCG\SIMPLEX\VERTEX\COMPONENT.H
D:\YU\REMOVE_OUTLIER_POINTS\REMOVE_OUTLIER_POINTS\VCGLIB\VCG\SIMPLEX\VERTEX\COMPONENT_OCF.H
D:\YU\REMOVE_OUTLIER_POINTS\REMOVE_OUTLIER_POINTS\VCGLIB\VCG\SIMPLEX\VERTEX\BASE.H
D:\YU\REMOVE_OUTLIER_POINTS\REMOVE_OUTLIER_POINTS\VCGLIB\VCG\SIMPLEX\FACE\COMPONENT.H
D:\YU\REMOVE_OUTLIER_POINTS\REMOVE_OUTLIER_POINTS\VCGLIB\VCG\SIMPLEX\FACE\COMPONENT_OCF.H
D:\YU\REMOVE_OUTLIER_POINTS\REMOVE_OUTLIER_POINTS\VCGLIB\VCG\SIMPLEX\FACE\COMPONENT_POLYGON.H
D:\YU\REMOVE_OUTLIER_POINTS\REMOVE_OUTLIER_POINTS\VCGLIB\VCG\SIMPLEX\FACE\BASE.H
D:\YU\REMOVE_OUTLIER_POINTS\REMOVE_OUTLIER_POINTS\VCGLIB\VCG\SIMPLEX\EDGE\COMPONENT.H
D:\YU\REMOVE_OUTLIER_POINTS\REMOVE_OUTLIER_POINTS\VCGLIB\VCG\SIMPLEX\EDGE\BASE.H
D:\YU\REMOVE_OUTLIER_POINTS\REMOVE_OUTLIER_POINTS\VCGLIB\VCG\CONNECTORS\HEDGE_COMPONENT.H
D:\YU\REMOVE_OUTLIER_POINTS\REMOVE_OUTLIER_POINTS\VCGLIB\VCG\CONNECTORS\HEDGE.H
D:\YU\REMOVE_OUTLIER_POINTS\REMOVE_OUTLIER_POINTS\VCGLIB\VCG\COMPLEX\BASE.H
D:\YU\REMOVE_OUTLIER_POINTS\REMOVE_OUTLIER_POINTS\VCGLIB\VCG\COMPLEX\ALLOCATE.H
D:\YU\REMOVE_OUTLIER_POINTS\REMOVE_OUTLIER_POINTS\VCGLIB\VCG\COMPLEX\ALGORITHMS\UPDATE\SELECTION.H
C:\PROGRAM FILES (X86)\MICROSOFT VISUAL STUDIO\2017\COMMUNITY\VC\TOOLS\MSVC\14.12.25827\INCLUDE\QUEUE
D:\YU\REMOVE_OUTLIER_POINTS\REMOVE_OUTLIER_POINTS\VCGLIB\VCG\COMPLEX\ALGORITHMS\MESH_ASSERT.H
D:\YU\REMOVE_OUTLIER_POINTS\REMOVE_OUTLIER_POINTS\VCGLIB\VCG\COMPLEX\APPEND.H
D:\YU\REMOVE_OUTLIER_POINTS\REMOVE_OUTLIER_POINTS\VCGLIB\VCG\SIMPLEX\EDGE\TOPOLOGY.H
D:\YU\REMOVE_OUTLIER_POINTS\REMOVE_OUTLIER_POINTS\VCGLIB\VCG\SIMPLEX\EDGE\POS.H
D:\YU\REMOVE_OUTLIER_POINTS\REMOVE_OUTLIER_POINTS\VCGLIB\VCG\COMPLEX\ALGORITHMS\CLOSEST.H
D:\YU\REMOVE_OUTLIER_POINTS\REMOVE_OUTLIER_POINTS\VCGLIB\VCG\SPACE\INDEX\GRID_UTIL.H
D:\YU\REMOVE_OUTLIER_POINTS\REMOVE_OUTLIER_POINTS\VCGLIB\VCG\SPACE\INDEX\BASE.H
D:\YU\REMOVE_OUTLIER_POINTS\REMOVE_OUTLIER_POINTS\VCGLIB\VCG\SPACE\RAY3.H
D:\YU\REMOVE_OUTLIER_POINTS\REMOVE_OUTLIER_POINTS\VCGLIB\VCG\SPACE\INDEX\SPACE_ITERATORS.H
D:\YU\REMOVE_OUTLIER_POINTS\REMOVE_OUTLIER_POINTS\VCGLIB\VCG\SPACE\INTERSECTION3.H
D:\YU\REMOVE_OUTLIER_POINTS\REMOVE_OUTLIER_POINTS\VCGLIB\VCG\SPACE\INTERSECTION\TRIANGLE_TRIANGLE3.H
D:\YU\REMOVE_OUTLIER_POINTS\REMOVE_OUTLIER_POINTS\VCGLIB\VCG\SPACE\INDEX\GRID_CLOSEST.H
D:\YU\REMOVE_OUTLIER_POINTS\REMOVE_OUTLIER_POINTS\VCGLIB\VCG\SIMPLEX\FACE\DISTANCE.H
D:\YU\REMOVE_OUTLIER_POINTS\REMOVE_OUTLIER_POINTS\VCGLIB\VCG\SPACE\DISTANCE3.H
D:\YU\REMOVE_OUTLIER_POINTS\REMOVE_OUTLIER_POINTS\VCGLIB\VCG\SIMPLEX\EDGE\DISTANCE.H
D:\YU\REMOVE_OUTLIER_POINTS\REMOVE_OUTLIER_POINTS\VCGLIB\VCG\SIMPLEX\VERTEX\DISTANCE.H
D:\YU\REMOVE_OUTLIER_POINTS\REMOVE_OUTLIER_POINTS\VCGLIB\VCG\SPACE\INDEX\GRID_STATIC_PTR.H
D:\YU\REMOVE_OUTLIER_POINTS\REMOVE_OUTLIER_POINTS\VCGLIB\VCG\SPACE\INDEX\SPATIAL_HASHING.H
C:\PROGRAM FILES (X86)\MICROSOFT VISUAL STUDIO\2017\COMMUNITY\VC\TOOLS\MSVC\14.12.25827\INCLUDE\UNORDERED_MAP
C:\PROGRAM FILES (X86)\MICROSOFT VISUAL STUDIO\2017\COMMUNITY\VC\TOOLS\MSVC\14.12.25827\INCLUDE\XHASH
C:\PROGRAM FILES (X86)\MICROSOFT VISUAL STUDIO\2017\COMMUNITY\VC\TOOLS\MSVC\14.12.25827\INCLUDE\LIST
D:\YU\REMOVE_OUTLIER_POINTS\REMOVE_OUTLIER_POINTS\VCGLIB\VCG\COMPLEX\ALGORITHMS\UPDATE\NORMAL.H
D:\YU\REMOVE_OUTLIER_POINTS\REMOVE_OUTLIER_POINTS\VCGLIB\VCG\COMPLEX\ALGORITHMS\POLYGON_SUPPORT.H
D:\YU\REMOVE_OUTLIER_POINTS\REMOVE_OUTLIER_POINTS\VCGLIB\VCG\SIMPLEX\FACE\JUMPING_POS.H
D:\YU\REMOVE_OUTLIER_POINTS\REMOVE_OUTLIER_POINTS\VCGLIB\VCG\SPACE\PLANAR_POLYGON_TESSELLATION.H
D:\YU\REMOVE_OUTLIER_POINTS\REMOVE_OUTLIER_POINTS\VCGLIB\VCG\MATH\RANDOM_GENERATOR.H
D:\YU\REMOVE_OUTLIER_POINTS\REMOVE_OUTLIER_POINTS\VCGLIB\VCG\COMPLEX\ALGORITHMS\UPDATE\POSITION.H
D:\YU\REMOVE_OUTLIER_POINTS\REMOVE_OUTLIER_POINTS\VCGLIB\VCG\COMPLEX\ALGORITHMS\UPDATE\BOUNDING.H
D:\YU\REMOVE_OUTLIER_POINTS\REMOVE_OUTLIER_POINTS\VCGLIB\VCG\COMPLEX\ALGORITHMS\SMOOTH.H
D:\YU\REMOVE_OUTLIER_POINTS\REMOVE_OUTLIER_POINTS\VCGLIB\VCG\COMPLEX\ALGORITHMS\UPDATE\HALFEDGE_TOPOLOGY.H
D:\YU\REMOVE_OUTLIER_POINTS\REMOVE_OUTLIER_POINTS\VCGLIB\VCG\CONNECTORS\HALFEDGE_POS.H
D:\YU\REMOVE_OUTLIER_POINTS\REMOVE_OUTLIER_POINTS\VCGLIB\VCG\SPACE\INDEX\KDTREE\KDTREE.H
D:\YU\REMOVE_OUTLIER_POINTS\REMOVE_OUTLIER_POINTS\VCGLIB\VCG\SPACE\INDEX\KDTREE\PRIORITYQUEUE.H
D:\YU\REMOVE_OUTLIER_POINTS\REMOVE_OUTLIER_POINTS\VCGLIB\WRAP\IO_TRIMESH\EXPORT_PLY.H
D:\YU\REMOVE_OUTLIER_POINTS\REMOVE_OUTLIER_POINTS\VCGLIB\WRAP\IO_TRIMESH\PRECISION.H
D:\YU\REMOVE_OUTLIER_POINTS\REMOVE_OUTLIER_POINTS\MESH.H
D:\YU\REMOVE_OUTLIER_POINTS\REMOVE_OUTLIER_POINTS\VCGLIB\VCG\COMPLEX\ALGORITHMS\UPDATE\COLOR.H
C:\PROGRAM FILES (X86)\WINDOWS KITS\10\INCLUDE\10.0.16299.0\UCRT\TIME.H
D:\YU\REMOVE_OUTLIER_POINTS\REMOVE_OUTLIER_POINTS\VCGLIB\VCG\MATH\HISTOGRAM.H
D:\YU\REMOVE_OUTLIER_POINTS\REMOVE_OUTLIER_POINTS\VCGLIB\VCG\MATH\PERLIN_NOISE.H
D:\YU\REMOVE_OUTLIER_POINTS\REMOVE_OUTLIER_POINTS\VCGLIB\VCG\COMPLEX\ALGORITHMS\STAT.H
D:\YU\REMOVE_OUTLIER_POINTS\REMOVE_OUTLIER_POINTS\VCGLIB\VCG\COMPLEX\ALGORITHMS\INERTIA.H
D:\YU\REMOVE_OUTLIER_POINTS\REMOVE_OUTLIER_POINTS\VCGLIB\VCG\COMPLEX\ALGORITHMS\UPDATE\QUALITY.H
